Date,Rainfall,Interpolated_Rainfall
4/1/2008,105.5,105.5
4/2/2008,,0
4/3/2008,,0
4/4/2008,,0
4/5/2008,,0
4/6/2008,,0
4/7/2008,5.4,5.4
4/8/2008,,0
4/9/2008,,0
4/10/2008,,0
4/11/2008,,0
4/12/2008,,0
4/13/2008,,0
4/14/2008,,0
4/15/2008,,0
4/16/2008,,0
4/17/2008,,0
4/18/2008,,0
4/19/2008,,0
4/20/2008,,0
4/21/2008,,0
4/22/2008,,0
4/23/2008,26.8,26.8
4/24/2008,,0
4/25/2008,,0
4/26/2008,,0
4/27/2008,,0
4/28/2008,,0
4/29/2008,,0
4/30/2008,17.6,17.6
5/1/2008,,0
5/2/2008,31,31
5/3/2008,11.5,11.5
5/4/2008,,0
5/5/2008,,0
5/6/2008,1.8,1.8
5/7/2008,1.2,1.2
5/8/2008,23.6,23.6
5/9/2008,3.9,3.9
5/10/2008,7.2,7.2
5/11/2008,0.3,0.3
5/12/2008,,0
5/13/2008,6.7,6.7
5/14/2008,15.3,15.3
5/15/2008,,0
5/16/2008,17.2,17.2
5/17/2008,,0
5/18/2008,,0
5/19/2008,12.3,12.3
5/20/2008,25.8,25.8
5/21/2008,49.5,49.5
5/22/2008,2.1,2.1
5/23/2008,,0
5/24/2008,,0
5/25/2008,8.9,8.9
5/26/2008,,0
5/27/2008,,0
5/28/2008,2.3,2.3
5/29/2008,10.2,10.2
5/30/2008,2.7,2.7
5/31/2008,,0
6/1/2008,,0
6/2/2008,17.5,17.5
6/3/2008,59.8,59.8
6/4/2008,,0
6/5/2008,3.4,3.4
6/6/2008,,0
6/7/2008,,0
6/8/2008,,0
6/9/2008,31.1,31.1
6/10/2008,,0
6/11/2008,7.6,7.6
6/12/2008,23.6,23.6
6/13/2008,3.4,3.4
6/14/2008,24.5,24.5
6/15/2008,5,5
6/16/2008,0.5,0.5
6/17/2008,16.5,16.5
6/18/2008,1,1
6/19/2008,4.5,4.5
6/20/2008,31.3,31.3
6/21/2008,,0
6/22/2008,,0
6/23/2008,,0
6/24/2008,,0
6/25/2008,,0
6/26/2008,,0
6/27/2008,,0
6/28/2008,,0
6/29/2008,3.6,3.6
6/30/2008,1.8,1.8
7/1/2008,29.5,29.5
7/2/2008,14.3,14.3
7/3/2008,4.8,4.8
7/4/2008,,0
7/5/2008,1,1
7/6/2008,3,3
7/7/2008,2.6,2.6
7/8/2008,61.8,61.8
7/9/2008,51.9,51.9
7/10/2008,21.8,21.8
7/11/2008,,0
7/12/2008,,0
7/13/2008,,0
7/14/2008,4,4
7/15/2008,,0
7/16/2008,,0
7/17/2008,6.4,6.4
7/18/2008,19.3,19.3
7/19/2008,5.4,5.4
7/20/2008,,0
7/21/2008,,0
7/22/2008,,0
7/23/2008,,0
7/24/2008,25.6,25.6
7/25/2008,,0
7/26/2008,0.8,0.8
7/27/2008,3,3
7/28/2008,0.6,0.6
7/29/2008,,0
7/30/2008,1.9,1.9
7/31/2008,25.6,25.6
8/1/2008,,0
8/2/2008,54,54
8/3/2008,12.8,12.8
8/4/2008,9.2,9.2
8/5/2008,19.5,19.5
8/6/2008,9.5,9.5
8/7/2008,9.2,9.2
8/8/2008,32.4,32.4
8/9/2008,2.1,2.1
8/10/2008,9.1,9.1
8/11/2008,46.9,46.9
8/12/2008,8,8
8/13/2008,37.5,37.5
8/14/2008,23.3,23.3
8/15/2008,2.7,2.7
8/16/2008,,0
8/17/2008,4,4
8/18/2008,3.7,3.7
8/19/2008,4,4
8/20/2008,15,15
8/21/2008,3.2,3.2
8/22/2008,,0
8/23/2008,4.6,4.6
8/24/2008,,0
8/25/2008,0.7,0.7
8/26/2008,,0
8/27/2008,28.2,28.2
8/28/2008,2.5,2.5
8/29/2008,23.2,23.2
8/30/2008,5.8,5.8
8/31/2008,12,12
9/1/2008,0.5,0.5
9/2/2008,8.4,8.4
9/3/2008,,0
9/4/2008,3.3,3.3
9/5/2008,,0
9/6/2008,31.8,31.8
9/7/2008,10.3,10.3
9/8/2008,,0
9/9/2008,,0
9/10/2008,9.9,9.9
9/11/2008,7.6,7.6
9/12/2008,,0
9/13/2008,20,20
9/14/2008,30.2,30.2
9/15/2008,25.8,25.8
9/16/2008,49.5,49.5
9/17/2008,16,16
9/18/2008,11,11
9/19/2008,2,2
9/20/2008,,0
9/21/2008,75.8,75.8
9/22/2008,67.4,67.4
9/23/2008,12.6,12.6
9/24/2008,6.4,6.4
9/25/2008,,0
9/26/2008,,0
9/27/2008,,0
9/28/2008,15.7,15.7
9/29/2008,8.2,8.2
9/30/2008,1,1
10/1/2008,36,36
10/2/2008,1.3,1.3
10/3/2008,10.4,10.4
10/4/2008,,0
10/5/2008,,0
10/6/2008,,0
10/7/2008,,0
10/8/2008,,0
10/9/2008,3,3
10/10/2008,,0
10/11/2008,,0
10/12/2008,,0
10/13/2008,,0
10/14/2008,,0
10/15/2008,,0
10/16/2008,,0
10/17/2008,1.9,1.9
10/18/2008,,0
10/19/2008,,0
10/20/2008,6.4,6.4
10/21/2008,0.4,0.4
10/22/2008,,0
10/23/2008,33.3,33.3
10/24/2008,47.2,47.2
10/25/2008,,0
10/26/2008,,0
10/27/2008,46.5,46.5
10/28/2008,,0
10/29/2008,13.1,13.1
10/30/2008,,0
10/31/2008,7.5,7.5
11/1/2008,1.3,1.3
11/2/2008,23.5,23.5
11/3/2008,9.1,9.1
11/4/2008,28.5,28.5
11/5/2008,,0
11/6/2008,2.1,2.1
11/7/2008,,0
11/8/2008,,0
11/9/2008,,0
11/10/2008,,0
11/11/2008,,0
11/12/2008,,0
11/13/2008,,0
11/14/2008,,0
11/15/2008,,0
11/16/2008,,0
11/17/2008,,0
11/18/2008,,0
11/19/2008,0.1,0.1
11/20/2008,,0
11/21/2008,,0
11/22/2008,,0
11/23/2008,,0
11/24/2008,,0
11/25/2008,,0
11/26/2008,,0
11/27/2008,,0
11/28/2008,,0
11/29/2008,,0
11/30/2008,,0
12/1/2008,,0
12/2/2008,,0
12/3/2008,,0
12/4/2008,,0
12/5/2008,,0
12/6/2008,,0
12/7/2008,,0
12/8/2008,,0
12/9/2008,,0
12/10/2008,,0
12/11/2008,,0
12/12/2008,,0
12/13/2008,,0
12/14/2008,,0
12/15/2008,,0
12/16/2008,,0
12/17/2008,,0
12/18/2008,,0
12/19/2008,,0
12/20/2008,,0
12/21/2008,,0
12/22/2008,,0
12/23/2008,,0
12/24/2008,,0
12/25/2008,,0
12/26/2008,,0
12/27/2008,,0
12/28/2008,,0
12/29/2008,,0
12/30/2008,,0
12/31/2008,,0
1/1/2009,,0
1/2/2009,,0
1/3/2009,,0
1/4/2009,,0
1/5/2009,,0
1/6/2009,,0
1/7/2009,,0
1/8/2009,,0
1/9/2009,,0
1/10/2009,,0
1/11/2009,,0
1/12/2009,,0
1/13/2009,,0
1/14/2009,,0
1/15/2009,,0
1/16/2009,,0
1/17/2009,,0
1/18/2009,,0
1/19/2009,,0
1/20/2009,,0
1/21/2009,,0
1/22/2009,,0
1/23/2009,,0
1/24/2009,,0
1/25/2009,,0
1/26/2009,,0
1/27/2009,,0
1/28/2009,,0
1/29/2009,,0
1/30/2009,,0
1/31/2009,,0
2/1/2009,,0
2/2/2009,,0
2/3/2009,,0
2/4/2009,,0
2/5/2009,,0
2/6/2009,,0
2/7/2009,,0
2/8/2009,,0
2/9/2009,,0
2/10/2009,,0
2/11/2009,,0
2/12/2009,,0
2/13/2009,,0
2/14/2009,,0
2/15/2009,,0
2/16/2009,,0
2/17/2009,,0
2/18/2009,,0
2/19/2009,,0
2/20/2009,,0
2/21/2009,,0
2/22/2009,,0
2/23/2009,,0
2/24/2009,,0
2/25/2009,,0
2/26/2009,,0
2/27/2009,,0
2/28/2009,,0
3/1/2009,16.4,16.4
3/2/2009,,0
3/3/2009,,0
3/4/2009,,0
3/5/2009,,0
3/6/2009,,0
3/7/2009,,0
3/8/2009,,0
3/9/2009,,0
3/10/2009,,0
3/11/2009,,0
3/12/2009,,0
3/13/2009,,0
3/14/2009,,0
3/15/2009,,0
3/16/2009,,0
3/17/2009,,0
3/18/2009,,0
3/19/2009,,0
3/20/2009,,0
3/21/2009,,0
3/22/2009,,0
3/23/2009,,0
3/24/2009,,0
3/25/2009,68.9,68.9
3/26/2009,,0
3/27/2009,,0
3/28/2009,,0
3/29/2009,,0
3/30/2009,,0
3/31/2009,,0
4/1/2009,28.5,28.5
4/2/2009,,0
4/3/2009,,0
4/4/2009,,0
4/5/2009,,0
4/6/2009,,0
4/7/2009,,0
4/8/2009,,0
4/9/2009,,0
4/10/2009,26.4,26.4
4/11/2009,4.6,4.6
4/12/2009,4.2,4.2
4/13/2009,,0
4/14/2009,1,1
4/15/2009,,0
4/16/2009,9.3,9.3
4/17/2009,,0
4/18/2009,,0
4/19/2009,,0
4/20/2009,,0
4/21/2009,1.9,1.9
4/22/2009,0.4,0.4
4/23/2009,,0
4/24/2009,,0
4/25/2009,,0
4/26/2009,4.2,4.2
4/27/2009,3.8,3.8
4/28/2009,17,17
4/29/2009,,0
4/30/2009,40.4,40.4
5/1/2009,4.6,4.6
5/2/2009,7.1,7.1
5/3/2009,,0
5/4/2009,,0
5/5/2009,,0
5/6/2009,,0
5/7/2009,,0
5/8/2009,,0
5/9/2009,,0
5/10/2009,,0
5/11/2009,,0
5/12/2009,6.1,6.1
5/13/2009,11.2,11.2
5/14/2009,3.7,3.7
5/15/2009,,0
5/16/2009,,0
5/17/2009,,0
5/18/2009,16,16
5/19/2009,,0
5/20/2009,,0
5/21/2009,51.3,51.3
5/22/2009,36.9,36.9
5/23/2009,48.4,48.4
5/24/2009,5.3,5.3
5/25/2009,1,1
5/26/2009,4,4
5/27/2009,,0
5/28/2009,,0
5/29/2009,,0
5/30/2009,3.6,3.6
5/31/2009,80,80
6/1/2009,,0
6/2/2009,18.1,18.1
6/3/2009,,0
6/4/2009,3.2,3.2
6/5/2009,13.8,13.8
6/6/2009,,0
6/7/2009,,0
6/8/2009,0.5,0.5
6/9/2009,,0
6/10/2009,17.8,17.8
6/11/2009,5.7,5.7
6/12/2009,20.1,20.1
6/13/2009,,0
6/14/2009,0.6,0.6
6/15/2009,2.2,2.2
6/16/2009,23.7,23.7
6/17/2009,2.3,2.3
6/18/2009,,0
6/19/2009,23.7,23.7
6/20/2009,1,1
6/21/2009,14.7,14.7
6/22/2009,12.4,12.4
6/23/2009,1.8,1.8
6/24/2009,12.9,12.9
6/25/2009,,0
6/26/2009,,0
6/27/2009,,0
6/28/2009,50.2,50.2
6/29/2009,5.6,5.6
6/30/2009,1.5,1.5
7/1/2009,0.6,0.6
7/2/2009,1.7,1.7
7/3/2009,,0
7/4/2009,,0
7/5/2009,8,8
7/6/2009,26.7,26.7
7/7/2009,22,22
7/8/2009,,0
7/9/2009,13.4,13.4
7/10/2009,,0
7/11/2009,2.8,2.8
7/12/2009,6.7,6.7
7/13/2009,3.2,3.2
7/14/2009,40.1,40.1
7/15/2009,9.5,9.5
7/16/2009,25,25
7/17/2009,65.4,65.4
7/18/2009,58.1,58.1
7/19/2009,13.1,13.1
7/20/2009,,0
7/21/2009,134.7,134.7
7/22/2009,2,2
7/23/2009,2.2,2.2
7/24/2009,,0
7/25/2009,,0
7/26/2009,2.1,2.1
7/27/2009,9.8,9.8
7/28/2009,45.1,45.1
7/29/2009,0.4,0.4
7/30/2009,30.4,30.4
7/31/2009,68,68
8/1/2009,76.6,76.6
8/2/2009,15.8,15.8
8/3/2009,5.5,5.5
8/4/2009,6.7,6.7
8/5/2009,10.3,10.3
8/6/2009,1,1
8/7/2009,24.7,24.7
8/8/2009,3.4,3.4
8/9/2009,,0
8/10/2009,3.2,3.2
8/11/2009,1.5,1.5
8/12/2009,,0
8/13/2009,0.3,0.3
8/14/2009,47,47
8/15/2009,,0
8/16/2009,18.3,18.3
8/17/2009,,0
8/18/2009,47.5,47.5
8/19/2009,1,1
8/20/2009,,0
8/21/2009,,0
8/22/2009,,0
8/23/2009,0.7,0.7
8/24/2009,1,1
8/25/2009,26.9,26.9
8/26/2009,5.5,5.5
8/27/2009,,0
8/28/2009,,0
8/29/2009,1.6,1.6
8/30/2009,,0
8/31/2009,,0
9/1/2009,10,10
9/2/2009,6.1,6.1
9/3/2009,24.1,24.1
9/4/2009,4.8,4.8
9/5/2009,5.1,5.1
9/6/2009,36.9,36.9
9/7/2009,31.8,31.8
9/8/2009,5.8,5.8
9/9/2009,54.3,54.3
9/10/2009,3.4,3.4
9/11/2009,,0
9/12/2009,,0
9/13/2009,,0
9/14/2009,7,7
9/15/2009,6,6
9/16/2009,30.1,30.1
9/17/2009,0.5,0.5
9/18/2009,,0
9/19/2009,3.5,3.5
9/20/2009,,0
9/21/2009,,0
9/22/2009,7.3,7.3
9/23/2009,,0
9/24/2009,1.6,1.6
9/25/2009,10.6,10.6
9/26/2009,10.5,10.5
9/27/2009,43.8,43.8
9/28/2009,12.1,12.1
9/29/2009,40,40
9/30/2009,106.3,106.3
10/1/2009,,0
10/2/2009,,0
10/3/2009,6.8,6.8
10/4/2009,1.2,1.2
10/5/2009,1.8,1.8
10/6/2009,,0
10/7/2009,,0
10/8/2009,,0
10/9/2009,,0
10/10/2009,0.8,0.8
10/11/2009,2.6,2.6
10/12/2009,0.5,0.5
10/13/2009,,0
10/14/2009,7.6,7.6
10/15/2009,1.5,1.5
10/16/2009,4.5,4.5
10/17/2009,,0
10/18/2009,,0
10/19/2009,3.5,3.5
10/20/2009,2.3,2.3
10/21/2009,,0
10/22/2009,,0
10/23/2009,,0
10/24/2009,,0
10/25/2009,,0
10/26/2009,,0
10/27/2009,,0
10/28/2009,,0
10/29/2009,,0
10/30/2009,,0
10/31/2009,,0
11/1/2009,,0
11/2/2009,,0
11/3/2009,,0
11/4/2009,,0
11/5/2009,,0
11/6/2009,,0
11/7/2009,,0
11/8/2009,,0
11/9/2009,,0
11/10/2009,,0
11/11/2009,,0
11/12/2009,,0
11/13/2009,,0
11/14/2009,,0
11/15/2009,,0
11/16/2009,,0
11/17/2009,,0
11/18/2009,,0
11/19/2009,,0
11/20/2009,,0
11/21/2009,,0
11/22/2009,,0
11/23/2009,,0
11/24/2009,,0
11/25/2009,,0
11/26/2009,,0
11/27/2009,,0
11/28/2009,,0
11/29/2009,,0
11/30/2009,,0
12/1/2009,,0
12/2/2009,,0
12/3/2009,,0
12/4/2009,,0
12/5/2009,,0
12/6/2009,,0
12/7/2009,,0
12/8/2009,,0
12/9/2009,,0
12/10/2009,,0
12/11/2009,,0
12/12/2009,,0
12/13/2009,,0
12/14/2009,,0
12/15/2009,,0
12/16/2009,,0
12/17/2009,,0
12/18/2009,,0
12/19/2009,,0
12/20/2009,,0
12/21/2009,,0
12/22/2009,,0
12/23/2009,,0
12/24/2009,,0
12/25/2009,,0
12/26/2009,,0
12/27/2009,,0
12/28/2009,,0
12/29/2009,,0
12/30/2009,,0
12/31/2009,,0
1/1/2010,,0
1/2/2010,,0
1/3/2010,,0
1/4/2010,,0
1/5/2010,,0
1/6/2010,,0
1/7/2010,,0
1/8/2010,,0
1/9/2010,,0
1/10/2010,,0
1/11/2010,,0
1/12/2010,,0
1/13/2010,,0
1/14/2010,,0
1/15/2010,,0
1/16/2010,,0
1/17/2010,,0
1/18/2010,,0
1/19/2010,,0
1/20/2010,,0
1/21/2010,6.5,6.5
1/22/2010,,0
1/23/2010,,0
1/24/2010,,0
1/25/2010,,0
1/26/2010,,0
1/27/2010,,0
1/28/2010,,0
1/29/2010,,0
1/30/2010,,0
1/31/2010,,0
2/1/2010,,0
2/2/2010,,0
2/3/2010,,0
2/4/2010,,0
2/5/2010,,0
2/6/2010,,0
2/7/2010,,0
2/8/2010,,0
2/9/2010,,0
2/10/2010,,0
2/11/2010,,0
2/12/2010,,0
2/13/2010,,0
2/14/2010,,0
2/15/2010,,0
2/16/2010,,0
2/17/2010,,0
2/18/2010,,0
2/19/2010,,0
2/20/2010,,0
2/21/2010,,0
2/22/2010,19.5,19.5
2/23/2010,,0
2/24/2010,1.9,1.9
2/25/2010,,0
2/26/2010,,0
2/27/2010,,0
2/28/2010,,0
3/1/2010,,0
3/2/2010,,0
3/3/2010,,0
3/4/2010,,0
3/5/2010,,0
3/6/2010,,0
3/7/2010,,0
3/8/2010,,0
3/9/2010,,0
3/10/2010,,0
3/11/2010,,0
3/12/2010,,0
3/13/2010,,0
3/14/2010,,0
3/15/2010,,0
3/16/2010,,0
3/17/2010,,0
3/18/2010,,0
3/19/2010,,0
3/20/2010,,0
3/21/2010,,0
3/22/2010,,0
3/23/2010,,0
3/24/2010,,0
3/25/2010,,0
3/26/2010,,0
3/27/2010,,0
3/28/2010,,0
3/29/2010,,0
3/30/2010,,0
3/31/2010,,0
4/1/2010,,0
4/2/2010,,0
4/3/2010,,0
4/4/2010,,0
4/5/2010,,0
4/6/2010,,0
4/7/2010,,0
4/8/2010,,0
4/9/2010,8.4,8.4
4/10/2010,0,0
4/11/2010,0,0
4/12/2010,0,0
4/13/2010,0,0
4/14/2010,0,0
4/15/2010,0,0
4/16/2010,12.2,12.2
4/17/2010,0,0
4/18/2010,1,1
4/19/2010,0,0
4/20/2010,0,0
4/21/2010,0,0
4/22/2010,0,0
4/23/2010,0,0
4/24/2010,0,0
4/25/2010,0,0
4/26/2010,0,0
4/27/2010,0,0
4/28/2010,5.1,5.1
4/29/2010,1.7,1.7
4/30/2010,0,0
5/1/2010,0,0
5/2/2010,0,0
5/3/2010,0,0
5/4/2010,16.1,16.1
5/5/2010,0,0
5/6/2010,16.3,16.3
5/7/2010,0,0
5/8/2010,0,0
5/9/2010,0,0
5/10/2010,0,0
5/11/2010,0,0
5/12/2010,0,0
5/13/2010,0,0
5/14/2010,0,0
5/15/2010,0,0
5/16/2010,3.1,3.1
5/17/2010,0,0
5/18/2010,0,0
5/19/2010,1.9,1.9
5/20/2010,0,0
5/21/2010,0,0
5/22/2010,0,0
5/23/2010,0,0
5/24/2010,6,6
5/25/2010,10.3,10.3
5/26/2010,0,0
5/27/2010,0,0
5/28/2010,0,0
5/29/2010,0,0
5/30/2010,6.2,6.2
5/31/2010,0,0
6/1/2010,32,32
6/2/2010,0,0
6/3/2010,8.8,8.8
6/4/2010,0,0
6/5/2010,29.3,29.3
6/6/2010,0,0
6/7/2010,1.9,1.9
6/8/2010,0,0
6/9/2010,0,0
6/10/2010,0,0
6/11/2010,1,1
6/12/2010,0,0
6/13/2010,0,0
6/14/2010,37.7,37.7
6/15/2010,0,0
6/16/2010,15.3,15.3
6/17/2010,6.2,6.2
6/18/2010,3,3
6/19/2010,3,3
6/20/2010,0,0
6/21/2010,0,0
6/22/2010,57.7,57.7
6/23/2010,0,0
6/24/2010,13.1,13.1
6/25/2010,0,0
6/26/2010,0,0
6/27/2010,2.6,2.6
6/28/2010,0,0
6/29/2010,0,0
6/30/2010,0,0
7/1/2010,1.1,1.1
7/2/2010,22.2,22.2
7/3/2010,0,0
7/4/2010,0,0
7/5/2010,0,0
7/6/2010,0,0
7/7/2010,0,0
7/8/2010,0,0
7/9/2010,0,0
7/10/2010,2.5,2.5
7/11/2010,0,0
7/12/2010,0,0
7/13/2010,28,28
7/14/2010,19.3,19.3
7/15/2010,0,0
7/16/2010,0,0
7/17/2010,0,0
7/18/2010,0,0
7/19/2010,0,0
7/20/2010,,0
7/21/2010,0,0
7/22/2010,20.5,20.5
7/23/2010,51,51
7/24/2010,7.8,7.8
7/25/2010,0,0
7/26/2010,7.5,7.5
7/27/2010,63.3,63.3
7/28/2010,1.5,1.5
7/29/2010,1,1
7/30/2010,3.9,3.9
7/31/2010,,0
8/1/2010,27.5,27.5
8/2/2010,13.1,13.1
8/3/2010,1.2,1.2
8/4/2010,0,0
8/5/2010,2.3,2.3
8/6/2010,42.8,42.8
8/7/2010,0,0
8/8/2010,30.7,30.7
8/9/2010,1,1
8/10/2010,2.4,2.4
8/11/2010,6.7,6.7
8/12/2010,0.5,0.5
8/13/2010,1.1,1.1
8/14/2010,3.6,3.6
8/15/2010,54,54
8/16/2010,0,0
8/17/2010,13.2,13.2
8/18/2010,0.6,0.6
8/19/2010,,0
8/20/2010,0,0
8/21/2010,89.6,89.6
8/22/2010,0.5,0.5
8/23/2010,3.8,3.8
8/24/2010,11.2,11.2
8/25/2010,0,0
8/26/2010,12.3,12.3
8/27/2010,10,10
8/28/2010,40.4,40.4
8/29/2010,10,10
8/30/2010,1.7,1.7
8/31/2010,0,0
9/1/2010,15.1,15.1
9/2/2010,0,0
9/3/2010,16.2,16.2
9/4/2010,11.8,11.8
9/5/2010,7.3,7.3
9/6/2010,0,0
9/7/2010,0,0
9/8/2010,,0
9/9/2010,0,0
9/10/2010,0,0
9/11/2010,23,23
9/12/2010,1.2,1.2
9/13/2010,45.7,45.7
9/14/2010,2.2,2.2
9/15/2010,0,0
9/16/2010,1.1,1.1
9/17/2010,0,0
9/18/2010,2.4,2.4
9/19/2010,,0
9/20/2010,1,1
9/21/2010,0,0
9/22/2010,0,0
9/23/2010,1,1
9/24/2010,0,0
9/25/2010,0,0
9/26/2010,6.4,6.4
9/27/2010,24.2,24.2
9/28/2010,16.2,16.2
9/29/2010,44.8,44.8
9/30/2010,3,3
10/1/2010,0,0
10/2/2010,0,0
10/3/2010,0,0
10/4/2010,0.4,0.4
10/5/2010,1,1
10/6/2010,25.8,25.8
10/7/2010,1,1
10/8/2010,0,0
10/9/2010,0,0
10/10/2010,0,0
10/11/2010,67.8,67.8
10/12/2010,1,1
10/13/2010,3.3,3.3
10/14/2010,4.8,4.8
10/15/2010,25.5,25.5
10/16/2010,5.5,5.5
10/17/2010,4.5,4.5
10/18/2010,13,13
10/19/2010,0,0
10/20/2010,26,26
10/21/2010,0,0
10/22/2010,0,0
10/23/2010,0,0
10/24/2010,0,0
10/25/2010,0,0
10/26/2010,0,0
10/27/2010,0,0
10/28/2010,0,0
10/29/2010,0,0
10/30/2010,0,0
10/31/2010,0,0
11/1/2010,0,0
11/2/2010,0,0
11/3/2010,0,0
11/4/2010,0,0
11/5/2010,0,0
11/6/2010,0,0
11/7/2010,0,0
11/8/2010,0,0
11/9/2010,,0
11/10/2010,0,0
11/11/2010,0,0
11/12/2010,0,0
11/13/2010,0,0
11/14/2010,0,0
11/15/2010,0,0
11/16/2010,0,0
11/17/2010,0,0
11/18/2010,0,0
11/19/2010,0,0
11/20/2010,0,0
11/21/2010,0,0
11/22/2010,0,0
11/23/2010,0,0
11/24/2010,0,0
11/25/2010,0,0
11/26/2010,0,0
11/27/2010,0,0
11/28/2010,0,0
11/29/2010,0,0
11/30/2010,0,0
12/1/2010,0,0
12/2/2010,0,0
12/3/2010,0,0
12/4/2010,0,0
12/5/2010,0,0
12/6/2010,0,0
12/7/2010,0,0
12/8/2010,0,0
12/9/2010,0,0
12/10/2010,0,0
12/11/2010,0,0
12/12/2010,0,0
12/13/2010,0,0
12/14/2010,0,0
12/15/2010,,0
12/16/2010,0,0
12/17/2010,0,0
12/18/2010,0,0
12/19/2010,0,0
12/20/2010,0,0
12/21/2010,0,0
12/22/2010,0,0
12/23/2010,0,0
12/24/2010,0,0
12/25/2010,0,0
12/26/2010,0,0
12/27/2010,0,0
12/28/2010,0,0
12/29/2010,0,0
12/30/2010,0,0
12/31/2010,0,0
1/1/2011,0,0
1/2/2011,0,0
1/3/2011,0,0
1/4/2011,0,0
1/5/2011,0,0
1/6/2011,0,0
1/7/2011,0,0
1/8/2011,0,0
1/9/2011,0,0
1/10/2011,0,0
1/11/2011,,0
1/12/2011,0,0
1/13/2011,0,0
1/14/2011,0,0
1/15/2011,0,0
1/16/2011,0,0
1/17/2011,0,0
1/18/2011,0,0
1/19/2011,0,0
1/20/2011,0,0
1/21/2011,0,0
1/22/2011,0,0
1/23/2011,0,0
1/24/2011,0,0
1/25/2011,0,0
1/26/2011,0,0
1/27/2011,0,0
1/28/2011,0,0
1/29/2011,0,0
1/30/2011,0,0
1/31/2011,0,0
2/1/2011,0,0
2/2/2011,0,0
2/3/2011,0,0
2/4/2011,0,0
2/5/2011,0,0
2/6/2011,0,0
2/7/2011,0,0
2/8/2011,0,0
2/9/2011,0,0
2/10/2011,0,0
2/11/2011,0,0
2/12/2011,0,0
2/13/2011,0,0
2/14/2011,0,0
2/15/2011,0,0
2/16/2011,0,0
2/17/2011,0,0
2/18/2011,0,0
2/19/2011,0,0
2/20/2011,0,0
2/21/2011,0,0
2/22/2011,0,0
2/23/2011,0,0
2/24/2011,7.8,7.8
2/25/2011,0,0
2/26/2011,0,0
2/27/2011,0,0
2/28/2011,0,0
3/1/2011,0,0
3/2/2011,0,0
3/3/2011,0,0
3/4/2011,0,0
3/5/2011,0,0
3/6/2011,0,0
3/7/2011,0,0
3/8/2011,0,0
3/9/2011,0,0
3/10/2011,0,0
3/11/2011,0,0
3/12/2011,0,0
3/13/2011,0,0
3/14/2011,0,0
3/15/2011,0,0
3/16/2011,0,0
3/17/2011,0,0
3/18/2011,0,0
3/19/2011,0,0
3/20/2011,0,0
3/21/2011,0,0
3/22/2011,0,0
3/23/2011,0,0
3/24/2011,0,0
3/25/2011,0,0
3/26/2011,0,0
3/27/2011,0,0
3/28/2011,0,0
3/29/2011,1,1
3/30/2011,0,0
3/31/2011,0,0
4/1/2011,0,0
4/2/2011,0,0
4/3/2011,0,0
4/4/2011,0,0
4/5/2011,0,0
4/6/2011,0,0
4/7/2011,0,0
4/8/2011,0,0
4/9/2011,,0
4/10/2011,0,0
4/11/2011,0,0
4/12/2011,0,0
4/13/2011,0,0
4/14/2011,0,0
4/15/2011,0,0
4/16/2011,0,0
4/17/2011,24.6,24.6
4/18/2011,3,3
4/19/2011,26.4,26.4
4/20/2011,,0
4/21/2011,1,1
4/22/2011,,0
4/23/2011,0,0
4/24/2011,5.3,5.3
4/25/2011,0,0
4/26/2011,0,0
4/27/2011,0,0
4/28/2011,45.5,45.5
4/29/2011,45.6,45.6
4/30/2011,0,0
5/1/2011,0,0
5/2/2011,0,0
5/3/2011,0,0
5/4/2011,1.7,1.7
5/5/2011,90.4,90.4
5/6/2011,2.6,2.6
5/7/2011,0,0
5/8/2011,0,0
5/9/2011,0.5,0.5
5/10/2011,0,0
5/11/2011,0,0
5/12/2011,0,0
5/13/2011,15.5,15.5
5/14/2011,23.1,23.1
5/15/2011,61.8,61.8
5/16/2011,12.2,12.2
5/17/2011,0,0
5/18/2011,10.2,10.2
5/19/2011,3.5,3.5
5/20/2011,0,0
5/21/2011,0,0
5/22/2011,0,0
5/23/2011,0,0
5/24/2011,0,0
5/25/2011,5.1,5.1
5/26/2011,48.1,48.1
5/27/2011,39.7,39.7
5/28/2011,0,0
5/29/2011,0,0
5/30/2011,22.4,22.4
5/31/2011,5.7,5.7
6/1/2011,2.3,2.3
6/2/2011,0,0
6/3/2011,2.7,2.7
6/4/2011,1.6,1.6
6/5/2011,4.2,4.2
6/6/2011,0,0
6/7/2011,61,61
6/8/2011,2.5,2.5
6/9/2011,0,0
6/10/2011,5,5
6/11/2011,27.5,27.5
6/12/2011,0,0
6/13/2011,1.1,1.1
6/14/2011,0,0
6/15/2011,0,0
6/16/2011,0,0
6/17/2011,3.7,3.7
6/18/2011,12.1,12.1
6/19/2011,10.8,10.8
6/20/2011,7.2,7.2
6/21/2011,19.7,19.7
6/22/2011,0,0
6/23/2011,0,0
6/24/2011,0,0
6/25/2011,57,57
6/26/2011,4.9,4.9
6/27/2011,1.8,1.8
6/28/2011,2.2,2.2
6/29/2011,20,20
6/30/2011,0.3,0.3
7/1/2011,30.2,30.2
7/2/2011,10.5,10.5
7/3/2011,0,0
7/4/2011,0,0
7/5/2011,0,0
7/6/2011,0,0
7/7/2011,0,0
7/8/2011,0,0
7/9/2011,0,0
7/10/2011,0,0
7/11/2011,4.9,4.9
7/12/2011,0,0
7/13/2011,25.8,25.8
7/14/2011,26.5,26.5
7/15/2011,13.5,13.5
7/16/2011,7.4,7.4
7/17/2011,8.8,8.8
7/18/2011,2.6,2.6
7/19/2011,23,23
7/20/2011,18.5,18.5
7/21/2011,31.5,31.5
7/22/2011,7.6,7.6
7/23/2011,1.1,1.1
7/24/2011,47.3,47.3
7/25/2011,11.8,11.8
7/26/2011,12.3,12.3
7/27/2011,42.4,42.4
7/28/2011,35.4,35.4
7/29/2011,0,0
7/30/2011,0,0
7/31/2011,3.1,3.1
8/1/2011,3.4,3.4
8/2/2011,9.1,9.1
8/3/2011,8.3,8.3
8/4/2011,9,9
8/5/2011,1.5,1.5
8/6/2011,27.3,27.3
8/7/2011,52.2,52.2
8/8/2011,9.5,9.5
8/9/2011,122,122
8/10/2011,70.1,70.1
8/11/2011,75,75
8/12/2011,14.3,14.3
8/13/2011,12.1,12.1
8/14/2011,3.7,3.7
8/15/2011,0,0
8/16/2011,40.7,40.7
8/17/2011,16.2,16.2
8/18/2011,1.4,1.4
8/19/2011,60.7,60.7
8/20/2011,66.3,66.3
8/21/2011,1.1,1.1
8/22/2011,1,1
8/23/2011,0,0
8/24/2011,2.5,2.5
8/25/2011,23.8,23.8
8/26/2011,5.8,5.8
8/27/2011,17.7,17.7
8/28/2011,0,0
8/29/2011,0.8,0.8
8/30/2011,33.5,33.5
8/31/2011,35,35
9/1/2011,16.7,16.7
9/2/2011,4.6,4.6
9/3/2011,2.1,2.1
9/4/2011,7.6,7.6
9/5/2011,21,21
9/6/2011,24.4,24.4
9/7/2011,41.9,41.9
9/8/2011,87.4,87.4
9/9/2011,57.4,57.4
9/10/2011,24.1,24.1
9/11/2011,3.5,3.5
9/12/2011,5.8,5.8
9/13/2011,2,2
9/14/2011,11,11
9/15/2011,19.7,19.7
9/16/2011,40.5,40.5
9/17/2011,26.2,26.2
9/18/2011,61.2,61.2
9/19/2011,19.5,19.5
9/20/2011,40.3,40.3
9/21/2011,15,15
9/22/2011,3.4,3.4
9/23/2011,43.2,43.2
9/24/2011,1.6,1.6
9/25/2011,0,0
9/26/2011,0,0
9/27/2011,1.6,1.6
9/28/2011,4.6,4.6
9/29/2011,4.1,4.1
9/30/2011,0.6,0.6
10/1/2011,0,0
10/2/2011,14.4,14.4
10/3/2011,0,0
10/4/2011,5.3,5.3
10/5/2011,0,0
10/6/2011,0,0
10/7/2011,0,0
10/8/2011,0,0
10/9/2011,8.8,8.8
10/10/2011,30.1,30.1
10/11/2011,11.1,11.1
10/12/2011,0,0
10/13/2011,17.6,17.6
10/14/2011,49.7,49.7
10/15/2011,40.2,40.2
10/16/2011,0,0
10/17/2011,1.4,1.4
10/18/2011,4.6,4.6
10/19/2011,0,0
10/20/2011,0,0
10/21/2011,0,0
10/22/2011,0,0
10/23/2011,0,0
10/24/2011,0,0
10/25/2011,4.2,4.2
10/26/2011,0,0
10/27/2011,0,0
10/28/2011,2.5,2.5
10/29/2011,0,0
10/30/2011,0,0
10/31/2011,0,0
11/1/2011,0,0
11/2/2011,0,0
11/3/2011,0,0
11/4/2011,0,0
11/5/2011,0,0
11/6/2011,0,0
11/7/2011,0,0
11/8/2011,4.1,4.1
11/9/2011,0,0
11/10/2011,0,0
11/11/2011,0,0
11/12/2011,0,0
11/13/2011,0,0
11/14/2011,0,0
11/15/2011,0,0
11/16/2011,0,0
11/17/2011,0,0
11/18/2011,0,0
11/19/2011,0,0
11/20/2011,0,0
11/21/2011,0,0
11/22/2011,0,0
11/23/2011,0,0
11/24/2011,0,0
11/25/2011,0,0
11/26/2011,0,0
11/27/2011,0,0
11/28/2011,0,0
11/29/2011,0,0
11/30/2011,0,0
12/1/2011,0,0
12/2/2011,0,0
12/3/2011,0,0
12/4/2011,0,0
12/5/2011,0,0
12/6/2011,0,0
12/7/2011,0,0
12/8/2011,0,0
12/9/2011,0,0
12/10/2011,0,0
12/11/2011,0,0
12/12/2011,0,0
12/13/2011,0,0
12/14/2011,0,0
12/15/2011,0,0
12/16/2011,0,0
12/17/2011,0,0
12/18/2011,0,0
12/19/2011,0,0
12/20/2011,0,0
12/21/2011,0,0
12/22/2011,0,0
12/23/2011,0,0
12/24/2011,0,0
12/25/2011,0,0
12/26/2011,0,0
12/27/2011,0,0
12/28/2011,0,0
12/29/2011,0,0
12/30/2011,0,0
12/31/2011,0,0
1/1/2012,0,0
1/2/2012,0,0
1/3/2012,0,0
1/4/2012,0,0
1/5/2012,0,0
1/6/2012,0,0
1/7/2012,0,0
1/8/2012,0,0
1/9/2012,0,0
1/10/2012,0,0
1/11/2012,0,0
1/12/2012,0,0
1/13/2012,0,0
1/14/2012,0,0
1/15/2012,0,0
1/16/2012,0,0
1/17/2012,0,0
1/18/2012,0,0
1/19/2012,0,0
1/20/2012,0,0
1/21/2012,0,0
1/22/2012,0,0
1/23/2012,0,0
1/24/2012,0,0
1/25/2012,0,0
1/26/2012,0,0
1/27/2012,0,0
1/28/2012,0,0
1/29/2012,0,0
1/30/2012,0,0
1/31/2012,0,0
2/1/2012,0,0
2/2/2012,0,0
2/3/2012,0,0
2/4/2012,0,0
2/5/2012,0,0
2/6/2012,0,0
2/7/2012,0,0
2/8/2012,0,0
2/9/2012,0,0
2/10/2012,0,0
2/11/2012,0,0
2/12/2012,0,0
2/13/2012,0,0
2/14/2012,0,0
2/15/2012,0,0
2/16/2012,0,0
2/17/2012,0,0
2/18/2012,0,0
2/19/2012,0,0
2/20/2012,0,0
2/21/2012,0,0
2/22/2012,0,0
2/23/2012,0,0
2/24/2012,0,0
2/25/2012,0,0
2/26/2012,0,0
2/27/2012,0,0
2/28/2012,0,0
2/29/2012,0,0
3/1/2012,0,0
3/2/2012,0,0
3/3/2012,0,0
3/4/2012,0,0
3/5/2012,0,0
3/6/2012,0,0
3/7/2012,13.7,13.7
3/8/2012,3.1,3.1
3/9/2012,0,0
3/10/2012,0,0
3/11/2012,0,0
3/12/2012,0,0
3/13/2012,0,0
3/14/2012,0,0
3/15/2012,0,0
3/16/2012,0,0
3/17/2012,0,0
3/18/2012,0,0
3/19/2012,0,0
3/20/2012,12.2,12.2
3/21/2012,0,0
3/22/2012,0,0
3/23/2012,0,0
3/24/2012,0,0
3/25/2012,0,0
3/26/2012,0,0
3/27/2012,0,0
3/28/2012,0,0
3/29/2012,0,0
3/30/2012,0,0
3/31/2012,0,0
4/1/2012,0,0
4/2/2012,0,0
4/3/2012,0,0
4/4/2012,0,0
4/5/2012,0,0
4/6/2012,18.5,18.5
4/7/2012,0,0
4/8/2012,0,0
4/9/2012,0,0
4/10/2012,0,0
4/11/2012,0,0
4/12/2012,0,0
4/13/2012,0,0
4/14/2012,2.7,2.7
4/15/2012,0,0
4/16/2012,0,0
4/17/2012,0,0
4/18/2012,0,0
4/19/2012,0,0
4/20/2012,0,0
4/21/2012,0,0
4/22/2012,0,0
4/23/2012,0,0
4/24/2012,0,0
4/25/2012,0,0
4/26/2012,0,0
4/27/2012,0,0
4/28/2012,70.8,70.8
4/29/2012,70.8,70.8
4/30/2012,0,0
5/1/2012,0,0
5/2/2012,0,0
5/3/2012,0,0
5/4/2012,0,0
5/5/2012,68.5,68.5
5/6/2012,14.3,14.3
5/7/2012,0,0
5/8/2012,4.8,4.8
5/9/2012,0,0
5/10/2012,0,0
5/11/2012,0,0
5/12/2012,0,0
5/13/2012,30.3,30.3
5/14/2012,0,0
5/15/2012,0,0
5/16/2012,1,1
5/17/2012,26,26
5/18/2012,2.6,2.6
5/19/2012,1.8,1.8
5/20/2012,0,0
5/21/2012,0,0
5/22/2012,0,0
5/23/2012,2.3,2.3
5/24/2012,38.2,38.2
5/25/2012,25.7,25.7
5/26/2012,18,18
5/27/2012,0,0
5/28/2012,16.4,16.4
5/29/2012,26.3,26.3
5/30/2012,0,0
5/31/2012,6.2,6.2
6/1/2012,0,0
6/2/2012,2.8,2.8
6/3/2012,0,0
6/4/2012,3.8,3.8
6/5/2012,3.7,3.7
6/6/2012,0,0
6/7/2012,26.4,26.4
6/8/2012,1.5,1.5
6/9/2012,11.2,11.2
6/10/2012,1.5,1.5
6/11/2012,0,0
6/12/2012,0,0
6/13/2012,0,0
6/14/2012,0,0
6/15/2012,0,0
6/16/2012,0,0
6/17/2012,7,7
6/18/2012,38.1,38.1
6/19/2012,3.1,3.1
6/20/2012,0.5,0.5
6/21/2012,0,0
6/22/2012,0,0
6/23/2012,0,0
6/24/2012,6.9,6.9
6/25/2012,0,0
6/26/2012,2.6,2.6
6/27/2012,0,0
6/28/2012,21.6,21.6
6/29/2012,16.5,16.5
6/30/2012,4.4,4.4
7/1/2012,37.5,37.5
7/2/2012,56.7,56.7
7/3/2012,17.6,17.6
7/4/2012,19.2,19.2
7/5/2012,5,5
7/6/2012,38.5,38.5
7/7/2012,43.5,43.5
7/8/2012,0,0
7/9/2012,0,0
7/10/2012,6,6
7/11/2012,2.9,2.9
7/12/2012,3.1,3.1
7/13/2012,0,0
7/14/2012,0,0
7/15/2012,0,0
7/16/2012,0,0
7/17/2012,0,0
7/18/2012,0,0
7/19/2012,1.7,1.7
7/20/2012,0,0
7/21/2012,0,0
7/22/2012,15.4,15.4
7/23/2012,0,0
7/24/2012,33,33
7/25/2012,9.7,9.7
7/26/2012,0,0
7/27/2012,0,0
7/28/2012,0,0
7/29/2012,52.3,52.3
7/30/2012,12.7,12.7
7/31/2012,14,14
8/1/2012,12.8,12.8
8/2/2012,3.5,3.5
8/3/2012,24.4,24.4
8/4/2012,2.1,2.1
8/5/2012,0.2,0.2
8/6/2012,0,0
8/7/2012,16,16
8/8/2012,21,21
8/9/2012,2.7,2.7
8/10/2012,7.8,7.8
8/11/2012,1.3,1.3
8/12/2012,5.7,5.7
8/13/2012,10.5,10.5
8/14/2012,22.2,22.2
8/15/2012,0.6,0.6
8/16/2012,4.2,4.2
8/17/2012,23.9,23.9
8/18/2012,25.6,25.6
8/19/2012,14.5,14.5
8/20/2012,0,0
8/21/2012,0,0
8/22/2012,0,0
8/23/2012,4.9,4.9
8/24/2012,0,0
8/25/2012,17.7,17.7
8/26/2012,21.6,21.6
8/27/2012,1.7,1.7
8/28/2012,29.8,29.8
8/29/2012,103.5,103.5
8/30/2012,50,50
8/31/2012,4.3,4.3
9/1/2012,2.4,2.4
9/2/2012,13.5,13.5
9/3/2012,58,58
9/4/2012,3.1,3.1
9/5/2012,6.5,6.5
9/6/2012,1,1
9/7/2012,1,1
9/8/2012,11.6,11.6
9/9/2012,1,1
9/10/2012,14.9,14.9
9/11/2012,25.6,25.6
9/12/2012,49.4,49.4
9/13/2012,17.1,17.1
9/14/2012,40.4,40.4
9/15/2012,0,0
9/16/2012,0,0
9/17/2012,13,13
9/18/2012,27.5,27.5
9/19/2012,13.8,13.8
9/20/2012,2.4,2.4
9/21/2012,151.8,151.8
9/22/2012,53,53
9/23/2012,16.5,16.5
9/24/2012,1,1
9/25/2012,25.2,25.2
9/26/2012,0,0
9/27/2012,14,14
9/28/2012,0.5,0.5
9/29/2012,0,0
9/30/2012,0,0
10/1/2012,0,0
10/2/2012,0,0
10/3/2012,1.2,1.2
10/4/2012,0,0
10/5/2012,0,0
10/6/2012,8.2,8.2
10/7/2012,9.9,9.9
10/8/2012,11,11
10/9/2012,11.3,11.3
10/10/2012,1,1
10/11/2012,0,0
10/12/2012,0,0
10/13/2012,0,0
10/14/2012,0,0
10/15/2012,0,0
10/16/2012,0,0
10/17/2012,0,0
10/18/2012,0,0
10/19/2012,0,0
10/20/2012,0,0
10/21/2012,0,0
10/22/2012,0,0
10/23/2012,0,0
10/24/2012,0,0
10/25/2012,0,0
10/26/2012,0,0
10/27/2012,0,0
10/28/2012,0,0
10/29/2012,0,0
10/30/2012,0,0
10/31/2012,1.1,1.1
11/1/2012,0,0
11/2/2012,0,0
11/3/2012,0,0
11/4/2012,0,0
11/5/2012,0,0
11/6/2012,0,0
11/7/2012,0,0
11/8/2012,0.8,0.8
11/9/2012,,0
11/10/2012,0,0
11/11/2012,0,0
11/12/2012,0,0
11/13/2012,0,0
11/14/2012,0,0
11/15/2012,0,0
11/16/2012,0,0
11/17/2012,26.5,26.5
11/18/2012,0,0
11/19/2012,0,0
11/20/2012,0,0
11/21/2012,0,0
11/22/2012,0,0
11/23/2012,0,0
11/24/2012,15.1,15.1
11/25/2012,0,0
11/26/2012,0,0
11/27/2012,0,0
11/28/2012,0,0
11/29/2012,0,0
11/30/2012,0,0
12/1/2012,0,0
12/2/2012,0,0
12/3/2012,0,0
12/4/2012,0,0
12/5/2012,0,0
12/6/2012,0,0
12/7/2012,0,0
12/8/2012,0,0
12/9/2012,0,0
12/10/2012,0,0
12/11/2012,0,0
12/12/2012,0,0
12/13/2012,0,0
12/14/2012,0,0
12/15/2012,0,0
12/16/2012,0,0
12/17/2012,0,0
12/18/2012,0,0
12/19/2012,0,0
12/20/2012,0,0
12/21/2012,0,0
12/22/2012,0,0
12/23/2012,0,0
12/24/2012,0,0
12/25/2012,0,0
12/26/2012,0,0
12/27/2012,0,0
12/28/2012,0,0
12/29/2012,0,0
12/30/2012,0,0
12/31/2012,0,0
1/1/2013,0,0
1/2/2013,0,0
1/3/2013,0,0
1/4/2013,0,0
1/5/2013,0,0
1/6/2013,0,0
1/7/2013,0,0
1/8/2013,0,0
1/9/2013,0,0
1/10/2013,0,0
1/11/2013,0,0
1/12/2013,0,0
1/13/2013,0,0
1/14/2013,0,0
1/15/2013,0,0
1/16/2013,0,0
1/17/2013,0,0
1/18/2013,0,0
1/19/2013,0,0
1/20/2013,0,0
1/21/2013,0,0
1/22/2013,0,0
1/23/2013,0,0
1/24/2013,0,0
1/25/2013,0,0
1/26/2013,0,0
1/27/2013,0,0
1/28/2013,0.6,0.6
1/29/2013,0,0
1/30/2013,0,0
1/31/2013,0,0
2/1/2013,0,0
2/2/2013,0,0
2/3/2013,0,0
2/4/2013,0,0
2/5/2013,0,0
2/6/2013,0,0
2/7/2013,0,0
2/8/2013,0,0
2/9/2013,0,0
2/10/2013,0,0
2/11/2013,0,0
2/12/2013,0,0
2/13/2013,0,0
2/14/2013,0,0
2/15/2013,0,0
2/16/2013,0,0
2/17/2013,0,0
2/18/2013,0,0
2/19/2013,0,0
2/20/2013,0,0
2/21/2013,0,0
2/22/2013,0,0
2/23/2013,0,0
2/24/2013,0,0
2/25/2013,0,0
2/26/2013,0,0
2/27/2013,0,0
2/28/2013,0,0
3/1/2013,0,0
3/2/2013,0,0
3/3/2013,0,0
3/4/2013,0,0
3/5/2013,0,0
3/6/2013,0,0
3/7/2013,0,0
3/8/2013,0,0
3/9/2013,0,0
3/10/2013,0,0
3/11/2013,0,0
3/12/2013,0,0
3/13/2013,0,0
3/14/2013,6.7,6.7
3/15/2013,0,0
3/16/2013,0,0
3/17/2013,0,0
3/18/2013,0,0
3/19/2013,0,0
3/20/2013,0,0
3/21/2013,13.7,13.7
3/22/2013,0,0
3/23/2013,0,0
3/24/2013,0,0
3/25/2013,0,0
3/26/2013,0,0
3/27/2013,0,0
3/28/2013,0,0
3/29/2013,0,0
3/30/2013,0,0
3/31/2013,0,0
4/1/2013,0,0
4/2/2013,0,0
4/3/2013,0,0
4/4/2013,0,0
4/5/2013,0,0
4/6/2013,0,0
4/7/2013,0,0
4/8/2013,0,0
4/9/2013,5.8,5.8
4/10/2013,0,0
4/11/2013,14.2,14.2
4/12/2013,0,0
4/13/2013,0,0
4/14/2013,0,0
4/15/2013,0,0
4/16/2013,0,0
4/17/2013,0,0
4/18/2013,11.7,11.7
4/19/2013,0,0
4/20/2013,1.5,1.5
4/21/2013,0,0
4/22/2013,8.8,8.8
4/23/2013,1,1
4/24/2013,0.9,0.9
4/25/2013,0,0
4/26/2013,49.7,49.7
4/27/2013,4.6,4.6
4/28/2013,0,0
4/29/2013,0,0
4/30/2013,0,0
5/1/2013,0,0
5/2/2013,4.7,4.7
5/3/2013,0,0
5/4/2013,33.3,33.3
5/5/2013,0,0
5/6/2013,0,0
5/7/2013,0,0
5/8/2013,3.1,3.1
5/9/2013,0,0
5/10/2013,0,0
5/11/2013,0,0
5/12/2013,35.9,35.9
5/13/2013,1.6,1.6
5/14/2013,0,0
5/15/2013,0,0
5/16/2013,1.2,1.2
5/17/2013,22.6,22.6
5/18/2013,76,76
5/19/2013,2.7,2.7
5/20/2013,0,0
5/21/2013,0,0
5/22/2013,29.3,29.3
5/23/2013,5.6,5.6
5/24/2013,19.8,19.8
5/25/2013,2.9,2.9
5/26/2013,2.5,2.5
5/27/2013,0,0
5/28/2013,0,0
5/29/2013,9.9,9.9
5/30/2013,13.5,13.5
5/31/2013,0,0
6/1/2013,0,0
6/2/2013,0,0
6/3/2013,0,0
6/4/2013,5.1,5.1
6/5/2013,5.8,5.8
6/6/2013,1.4,1.4
6/7/2013,0,0
6/8/2013,0,0
6/9/2013,0,0
6/10/2013,0.6,0.6
6/11/2013,32.3,32.3
6/12/2013,13.2,13.2
6/13/2013,0,0
6/14/2013,0,0
6/15/2013,0,0
6/16/2013,0,0
6/17/2013,0,0
6/18/2013,0,0
6/19/2013,0,0
6/20/2013,0,0
6/21/2013,2.9,2.9
6/22/2013,36.7,36.7
6/23/2013,24.2,24.2
6/24/2013,29,29
6/25/2013,3,3
6/26/2013,59,59
6/27/2013,2.5,2.5
6/28/2013,0.3,0.3
6/29/2013,0,0
6/30/2013,0,0
7/1/2013,0,0
7/2/2013,0,0
7/3/2013,0,0
7/4/2013,0,0
7/5/2013,0,0
7/6/2013,1.4,1.4
7/7/2013,1.9,1.9
7/8/2013,15.9,15.9
7/9/2013,2,2
7/10/2013,0.6,0.6
7/11/2013,17.3,17.3
7/12/2013,2.8,2.8
7/13/2013,0,0
7/14/2013,0,0
7/15/2013,0,0
7/16/2013,37.6,37.6
7/17/2013,0,0
7/18/2013,0.6,0.6
7/19/2013,15.9,15.9
7/20/2013,274.2,274.2
7/21/2013,64.3,64.3
7/22/2013,28.5,28.5
7/23/2013,47,47
7/24/2013,48.8,48.8
7/25/2013,10.6,10.6
7/26/2013,0,0
7/27/2013,7.3,7.3
7/28/2013,40,40
7/29/2013,1.3,1.3
7/30/2013,114.7,114.7
7/31/2013,7.9,7.9
8/1/2013,2.4,2.4
8/2/2013,8.4,8.4
8/3/2013,7.4,7.4
8/4/2013,12.3,12.3
8/5/2013,0,0
8/6/2013,0,0
8/7/2013,4.3,4.3
8/8/2013,3.8,3.8
8/9/2013,36.5,36.5
8/10/2013,29.5,29.5
8/11/2013,12.6,12.6
8/12/2013,0,0
8/13/2013,0,0
8/14/2013,0,0
8/15/2013,0,0
8/16/2013,0,0
8/17/2013,0,0
8/18/2013,0,0
8/19/2013,0.5,0.5
8/20/2013,0,0
8/21/2013,2.8,2.8
8/22/2013,6.7,6.7
8/23/2013,6.2,6.2
8/24/2013,15.6,15.6
8/25/2013,40,40
8/26/2013,48.8,48.8
8/27/2013,8.1,8.1
8/28/2013,10.6,10.6
8/29/2013,26.4,26.4
8/30/2013,12.3,12.3
8/31/2013,4.1,4.1
9/1/2013,8.3,8.3
9/2/2013,20.3,20.3
9/3/2013,0,0
9/4/2013,0,0
9/5/2013,0,0
9/6/2013,3,3
9/7/2013,35,35
9/8/2013,25.4,25.4
9/9/2013,25.4,25.4
9/10/2013,20.6,20.6
9/11/2013,0.5,0.5
9/12/2013,0,0
9/13/2013,0,0
9/14/2013,43.5,43.5
9/15/2013,4.9,4.9
9/16/2013,97.5,97.5
9/17/2013,19,19
9/18/2013,96.5,96.5
9/19/2013,131,131
9/20/2013,3.5,3.5
9/21/2013,21.5,21.5
9/22/2013,49,49
9/23/2013,57.7,57.7
9/24/2013,35,35
9/25/2013,1.1,1.1
9/26/2013,26.1,26.1
9/27/2013,44.1,44.1
9/28/2013,3.2,3.2
9/29/2013,32,32
9/30/2013,0,0
10/1/2013,0,0
10/2/2013,5.8,5.8
10/3/2013,1,1
10/4/2013,0,0
10/5/2013,6.4,6.4
10/6/2013,0,0
10/7/2013,4.5,4.5
10/8/2013,0,0
10/9/2013,0,0
10/10/2013,0,0
10/11/2013,0,0
10/12/2013,0,0
10/13/2013,0,0
10/14/2013,0,0
10/15/2013,3,3
10/16/2013,74.6,74.6
10/17/2013,16.8,16.8
10/18/2013,0,0
10/19/2013,3.5,3.5
10/20/2013,4.8,4.8
10/21/2013,0,0
10/22/2013,0,0
10/23/2013,0,0
10/24/2013,0,0
10/25/2013,0,0
10/26/2013,0,0
10/27/2013,0,0
10/28/2013,0,0
10/29/2013,0,0
10/30/2013,0,0
10/31/2013,0,0
11/1/2013,1,1
11/2/2013,0,0
11/3/2013,0,0
11/4/2013,0,0
11/5/2013,0,0
11/6/2013,0,0
11/7/2013,1,1
11/8/2013,0.6,0.6
11/9/2013,0,0
11/10/2013,0,0
11/11/2013,0.6,0.6
11/12/2013,0,0
11/13/2013,0,0
11/14/2013,0,0
11/15/2013,0,0
11/16/2013,4.5,4.5
11/17/2013,0,0
11/18/2013,0,0
11/19/2013,0,0
11/20/2013,0,0
11/21/2013,0,0
11/22/2013,0,0
11/23/2013,0,0
11/24/2013,0,0
11/25/2013,0.5,0.5
11/26/2013,0,0
11/27/2013,0,0
11/28/2013,0,0
11/29/2013,0,0
11/30/2013,0,0
12/1/2013,0,0
12/2/2013,0,0
12/3/2013,0,0
12/4/2013,0,0
12/5/2013,0,0
12/6/2013,0,0
12/7/2013,0,0
12/8/2013,0,0
12/9/2013,0,0
12/10/2013,0,0
12/11/2013,0,0
12/12/2013,0,0
12/13/2013,0,0
12/14/2013,0,0
12/15/2013,3,3
12/16/2013,15.8,15.8
12/17/2013,35,35
12/18/2013,0,0
12/19/2013,0,0
12/20/2013,0,0
12/21/2013,0,0
12/22/2013,0,0
12/23/2013,0,0
12/24/2013,0,0
12/25/2013,0,0
12/26/2013,0,0
12/27/2013,0,0
12/28/2013,0,0
12/29/2013,0,0
12/30/2013,0,0
12/31/2013,0,0
1/1/2014,0,0
1/2/2014,0,0
1/3/2014,0,0
1/4/2014,0,0
1/5/2014,0,0
1/6/2014,0,0
1/7/2014,0,0
1/8/2014,0,0
1/9/2014,0,0
1/10/2014,0,0
1/11/2014,0,0
1/12/2014,0,0
1/13/2014,0,0
1/14/2014,0,0
1/15/2014,0,0
1/16/2014,0,0
1/17/2014,0,0
1/18/2014,0,0
1/19/2014,0,0
1/20/2014,0,0
1/21/2014,0,0
1/22/2014,0,0
1/23/2014,0,0
1/24/2014,0,0
1/25/2014,0,0
1/26/2014,0,0
1/27/2014,0,0
1/28/2014,0,0
1/29/2014,0,0
1/30/2014,0,0
1/31/2014,0,0
2/1/2014,0,0
2/2/2014,0,0
2/3/2014,0,0
2/4/2014,0,0
2/5/2014,0,0
2/6/2014,0,0
2/7/2014,0,0
2/8/2014,0,0
2/9/2014,0,0
2/10/2014,0,0
2/11/2014,0,0
2/12/2014,0,0
2/13/2014,0,0
2/14/2014,0,0
2/15/2014,0,0
2/16/2014,0,0
2/17/2014,0,0
2/18/2014,0,0
2/19/2014,0,0
2/20/2014,0,0
2/21/2014,0,0
2/22/2014,0,0
2/23/2014,0,0
2/24/2014,0,0
2/25/2014,0,0
2/26/2014,0,0
2/27/2014,0,0
2/28/2014,0,0
3/1/2014,0,0
3/2/2014,0,0
3/3/2014,0,0
3/4/2014,0,0
3/5/2014,0,0
3/6/2014,0,0
3/7/2014,0,0
3/8/2014,0,0
3/9/2014,0,0
3/10/2014,0,0
3/11/2014,0,0
3/12/2014,0,0
3/13/2014,0,0
3/14/2014,0,0
3/15/2014,0,0
3/16/2014,0,0
3/17/2014,0,0
3/18/2014,0,0
3/19/2014,0,0
3/20/2014,0,0
3/21/2014,0,0
3/22/2014,21.5,21.5
3/23/2014,0,0
3/24/2014,0,0
3/25/2014,0,0
3/26/2014,0,0
3/27/2014,0,0
3/28/2014,0,0
3/29/2014,0,0
3/30/2014,0,0
3/31/2014,0,0
4/1/2014,0,0
4/2/2014,49,49
4/3/2014,0,0
4/4/2014,28,28
4/5/2014,0,0
4/6/2014,0,0
4/7/2014,0,0
4/8/2014,0,0
4/9/2014,0,0
4/10/2014,20.2,20.2
4/11/2014,18,18
4/12/2014,2.3,2.3
4/13/2014,0,0
4/14/2014,0,0
4/15/2014,0,0
4/16/2014,0,0
4/17/2014,0,0
4/18/2014,0,0
4/19/2014,0,0
4/20/2014,0,0
4/21/2014,0,0
4/22/2014,0,0
4/23/2014,0,0
4/24/2014,0,0
4/25/2014,0,0
4/26/2014,0,0
4/27/2014,0,0
4/28/2014,7,7
4/29/2014,0.5,0.5
4/30/2014,0,0
5/1/2014,0,0
5/2/2014,3.8,3.8
5/3/2014,0,0
5/4/2014,3,3
5/5/2014,0,0
5/6/2014,0,0
5/7/2014,0,0
5/8/2014,5.2,5.2
5/9/2014,0,0
5/10/2014,4,4
5/11/2014,7.4,7.4
5/12/2014,0,0
5/13/2014,0,0
5/14/2014,0,0
5/15/2014,4.2,4.2
5/16/2014,0,0
5/17/2014,0,0
5/18/2014,11.3,11.3
5/19/2014,0,0
5/20/2014,0,0
5/21/2014,0,0
5/22/2014,0,0
5/23/2014,0,0
5/24/2014,3.6,3.6
5/25/2014,0,0
5/26/2014,0,0
5/27/2014,13.6,13.6
5/28/2014,0,0
5/29/2014,0,0
5/30/2014,0,0
5/31/2014,0,0
6/1/2014,0,0
6/2/2014,21.4,21.4
6/3/2014,1.6,1.6
6/4/2014,0,0
6/5/2014,0,0
6/6/2014,0,0
6/7/2014,17.6,17.6
6/8/2014,0,0
6/9/2014,0,0
6/10/2014,57.5,57.5
6/11/2014,81.3,81.3
6/12/2014,5.1,5.1
6/13/2014,17.3,17.3
6/14/2014,3.2,3.2
6/15/2014,10,10
6/16/2014,16,16
6/17/2014,3.3,3.3
6/18/2014,25.8,25.8
6/19/2014,36.5,36.5
6/20/2014,1,1
6/21/2014,7.8,7.8
6/22/2014,58.6,58.6
6/23/2014,45.6,45.6
6/24/2014,11.6,11.6
6/25/2014,6.6,6.6
6/26/2014,37.9,37.9
6/27/2014,0,0
6/28/2014,0,0
6/29/2014,58.5,58.5
6/30/2014,93,93
7/1/2014,29,29
7/2/2014,0,0
7/3/2014,1.1,1.1
7/4/2014,2.6,2.6
7/5/2014,0,0
7/6/2014,0,0
7/7/2014,0,0
7/8/2014,0.4,0.4
7/9/2014,30.1,30.1
7/10/2014,42,42
7/11/2014,0.5,0.5
7/12/2014,18.6,18.6
7/13/2014,0,0
7/14/2014,14.8,14.8
7/15/2014,60.8,60.8
7/16/2014,26.1,26.1
7/17/2014,0,0
7/18/2014,0,0
7/19/2014,27.6,27.6
7/20/2014,32.5,32.5
7/21/2014,5.3,5.3
7/22/2014,63,63
7/23/2014,94.5,94.5
7/24/2014,26.8,26.8
7/25/2014,8.3,8.3
7/26/2014,0,0
7/27/2014,61.4,61.4
7/28/2014,26.8,26.8
7/29/2014,60,60
7/30/2014,35.5,35.5
7/31/2014,64,64
8/1/2014,22.7,22.7
8/2/2014,59.5,59.5
8/3/2014,23.2,23.2
8/4/2014,2.1,2.1
8/5/2014,24.5,24.5
8/6/2014,16.9,16.9
8/7/2014,16.5,16.5
8/8/2014,0,0
8/9/2014,0,0
8/10/2014,0,0
8/11/2014,0,0
8/12/2014,0,0
8/13/2014,6.6,6.6
8/14/2014,2.8,2.8
8/15/2014,0,0
8/16/2014,0,0
8/17/2014,2.8,2.8
8/18/2014,0,0
8/19/2014,29.5,29.5
8/20/2014,1,1
8/21/2014,0,0
8/22/2014,0,0
8/23/2014,0,0
8/24/2014,0,0
8/25/2014,0,0
8/26/2014,0,0
8/27/2014,10.1,10.1
8/28/2014,1.5,1.5
8/29/2014,9.4,9.4
8/30/2014,32.5,32.5
8/31/2014,3.4,3.4
9/1/2014,12.5,12.5
9/2/2014,19.9,19.9
9/3/2014,27,27
9/4/2014,0,0
9/5/2014,5.8,5.8
9/6/2014,2.4,2.4
9/7/2014,0,0
9/8/2014,3,3
9/9/2014,0,0
9/10/2014,0,0
9/11/2014,109.5,109.5
9/12/2014,15,15
9/13/2014,6,6
9/14/2014,0,0
9/15/2014,78.4,78.4
9/16/2014,0,0
9/17/2014,0.5,0.5
9/18/2014,7.2,7.2
9/19/2014,0,0
9/20/2014,0,0
9/21/2014,0,0
9/22/2014,0.5,0.5
9/23/2014,8,8
9/24/2014,8.2,8.2
9/25/2014,8.3,8.3
9/26/2014,22.6,22.6
9/27/2014,0.5,0.5
9/28/2014,7.6,7.6
9/29/2014,29.6,29.6
9/30/2014,20.3,20.3
10/1/2014,14,14
10/2/2014,0,0
10/3/2014,0,0
10/4/2014,0,0
10/5/2014,0,0
10/6/2014,0,0
10/7/2014,0,0
10/8/2014,0,0
10/9/2014,0,0
10/10/2014,0,0
10/11/2014,0,0
10/12/2014,0,0
10/13/2014,0,0
10/14/2014,0,0
10/15/2014,0,0
10/16/2014,0,0
10/17/2014,0,0
10/18/2014,0,0
10/19/2014,0.5,0.5
10/20/2014,0,0
10/21/2014,0.5,0.5
10/22/2014,0,0
10/23/2014,27,27
10/24/2014,0.5,0.5
10/25/2014,15,15
10/26/2014,8.1,8.1
10/27/2014,28.9,28.9
10/28/2014,28.2,28.2
10/29/2014,2.5,2.5
10/30/2014,0,0
10/31/2014,0,0
11/1/2014,1.5,1.5
11/2/2014,0,0
11/3/2014,0,0
11/4/2014,0,0
11/5/2014,0,0
11/6/2014,0,0
11/7/2014,0,0
11/8/2014,0,0
11/9/2014,0,0
11/10/2014,0,0
11/11/2014,0,0
11/12/2014,0,0
11/13/2014,0,0
11/14/2014,0,0
11/15/2014,0,0
11/16/2014,0,0
11/17/2014,0,0
11/18/2014,0,0
11/19/2014,0,0
11/20/2014,0,0
11/21/2014,0,0
11/22/2014,0,0
11/23/2014,0,0
11/24/2014,0,0
11/25/2014,0,0
11/26/2014,0,0
11/27/2014,0,0
11/28/2014,0,0
11/29/2014,0,0
11/30/2014,0,0
12/1/2014,0,0
12/2/2014,1.4,1.4
12/3/2014,0,0
12/4/2014,0,0
12/5/2014,0,0
12/6/2014,0,0
12/7/2014,0,0
12/8/2014,0,0
12/9/2014,0,0
12/10/2014,0,0
12/11/2014,0,0
12/12/2014,0,0
12/13/2014,0,0
12/14/2014,0,0
12/15/2014,0,0
12/16/2014,0,0
12/17/2014,0,0
12/18/2014,0,0
12/19/2014,0,0
12/20/2014,0,0
12/21/2014,0,0
12/22/2014,0,0
12/23/2014,0,0
12/24/2014,0,0
12/25/2014,0,0
12/26/2014,0,0
12/27/2014,0,0
12/28/2014,1,1
12/29/2014,0,0
12/30/2014,0,0
12/31/2014,0,0
1/1/2015,0,0
1/2/2015,0,0
1/3/2015,0,0
1/4/2015,0,0
1/5/2015,0,0
1/6/2015,0,0
1/7/2015,0,0
1/8/2015,0,0
1/9/2015,0,0
1/10/2015,0,0
1/11/2015,0,0
1/12/2015,0,0
1/13/2015,0,0
1/14/2015,0,0
1/15/2015,0,0
1/16/2015,0,0
1/17/2015,0,0
1/18/2015,0,0
1/19/2015,0,0
1/20/2015,0,0
1/21/2015,0,0
1/22/2015,0,0
1/23/2015,0,0
1/24/2015,0,0
1/25/2015,0,0
1/26/2015,0,0
1/27/2015,0,0
1/28/2015,0,0
1/29/2015,0,0
1/30/2015,0,0
1/31/2015,0,0
2/1/2015,0,0
2/2/2015,0,0
2/3/2015,0,0
2/4/2015,0,0
2/5/2015,0,0
2/6/2015,0,0
2/7/2015,0,0
2/8/2015,0,0
2/9/2015,0,0
2/10/2015,0,0
2/11/2015,0,0
2/12/2015,0,0
2/13/2015,0,0
2/14/2015,0,0
2/15/2015,0,0
2/16/2015,0,0
2/17/2015,0,0
2/18/2015,0,0
2/19/2015,0,0
2/20/2015,0,0
2/21/2015,0,0
2/22/2015,3.1,3.1
2/23/2015,0,0
2/24/2015,0,0
2/25/2015,0,0
2/26/2015,0,0
2/27/2015,0,0
2/28/2015,0,0
3/1/2015,0,0
3/2/2015,0,0
3/3/2015,0,0
3/4/2015,0,0
3/5/2015,0,0
3/6/2015,0,0
3/7/2015,0,0
3/8/2015,0,0
3/9/2015,0,0
3/10/2015,0,0
3/11/2015,0,0
3/12/2015,0,0
3/13/2015,0,0
3/14/2015,0,0
3/15/2015,0,0
3/16/2015,0,0
3/17/2015,0,0
3/18/2015,0,0
3/19/2015,0,0
3/20/2015,0,0
3/21/2015,0,0
3/22/2015,0,0
3/23/2015,0,0
3/24/2015,0,0
3/25/2015,0,0
3/26/2015,0,0
3/27/2015,7.2,7.2
3/28/2015,1.5,1.5
3/29/2015,0,0
3/30/2015,25.2,25.2
3/31/2015,0,0
4/1/2015,0,0
4/2/2015,0,0
4/3/2015,0,0
4/4/2015,0,0
4/5/2015,0,0
4/6/2015,0,0
4/7/2015,0,0
4/8/2015,0,0
4/9/2015,0,0
4/10/2015,0,0
4/11/2015,0,0
4/12/2015,0,0
4/13/2015,0,0
4/14/2015,0,0
4/15/2015,0,0
4/16/2015,0,0
4/17/2015,0,0
4/18/2015,0,0
4/19/2015,0,0
4/20/2015,0,0
4/21/2015,0,0
4/22/2015,0,0
4/23/2015,0,0
4/24/2015,0,0
4/25/2015,1.2,1.2
4/26/2015,0,0
4/27/2015,0,0
4/28/2015,0,0
4/29/2015,0,0
4/30/2015,0,0
5/1/2015,12.8,12.8
5/2/2015,12.9,12.9
5/3/2015,2.1,2.1
5/4/2015,0,0
5/5/2015,0,0
5/6/2015,48,48
5/7/2015,0,0
5/8/2015,0,0
5/9/2015,0,0
5/10/2015,0,0
5/11/2015,0,0
5/12/2015,0,0
5/13/2015,28,28
5/14/2015,5.4,5.4
5/15/2015,0,0
5/16/2015,0,0
5/17/2015,0,0
5/18/2015,7.7,7.7
5/19/2015,0,0
5/20/2015,0,0
5/21/2015,0.5,0.5
5/22/2015,8,8
5/23/2015,0,0
5/24/2015,7.8,7.8
5/25/2015,0,0
5/26/2015,10,10
5/27/2015,3.2,3.2
5/28/2015,0,0
5/29/2015,0,0
5/30/2015,0,0
5/31/2015,0,0
6/1/2015,0,0
6/2/2015,16.3,16.3
6/3/2015,0,0
6/4/2015,0,0
6/5/2015,0,0
6/6/2015,0,0
6/7/2015,0,0
6/8/2015,0.5,0.5
6/9/2015,0,0
6/10/2015,0,0
6/11/2015,0,0
6/12/2015,0,0
6/13/2015,0,0
6/14/2015,0,0
6/15/2015,5,5
6/16/2015,11.4,11.4
6/17/2015,2.7,2.7
6/18/2015,0,0
6/19/2015,1.1,1.1
6/20/2015,1.8,1.8
6/21/2015,7.2,7.2
6/22/2015,29.2,29.2
6/23/2015,4,4
6/24/2015,9.5,9.5
6/25/2015,2.5,2.5
6/26/2015,3.2,3.2
6/27/2015,3.1,3.1
6/28/2015,6.3,6.3
6/29/2015,0,0
6/30/2015,0,0
7/1/2015,0,0
7/2/2015,0,0
7/3/2015,0,0
7/4/2015,0,0
7/5/2015,0,0
7/6/2015,0,0
7/7/2015,0,0
7/8/2015,1.8,1.8
7/9/2015,33.8,33.8
7/10/2015,21,21
7/11/2015,0,0
7/12/2015,104.1,104.1
7/13/2015,34.8,34.8
7/14/2015,3.2,3.2
7/15/2015,6,6
7/16/2015,3.4,3.4
7/17/2015,0,0
7/18/2015,0,0
7/19/2015,12.7,12.7
7/20/2015,5.9,5.9
7/21/2015,4,4
7/22/2015,0,0
7/23/2015,0,0
7/24/2015,0,0
7/25/2015,0.5,0.5
7/26/2015,27,27
7/27/2015,6.7,6.7
7/28/2015,8.7,8.7
7/29/2015,3.2,3.2
7/30/2015,6.8,6.8
7/31/2015,2.2,2.2
8/1/2015,7.7,7.7
8/2/2015,2.7,2.7
8/3/2015,22.7,22.7
8/4/2015,32.7,32.7
8/5/2015,23.9,23.9
8/6/2015,0,0
8/7/2015,2.1,2.1
8/8/2015,0,0
8/9/2015,0,0
8/10/2015,23.1,23.1
8/11/2015,11.8,11.8
8/12/2015,4.2,4.2
8/13/2015,11.1,11.1
8/14/2015,0,0
8/15/2015,0,0
8/16/2015,0,0
8/17/2015,0,0
8/18/2015,0,0
8/19/2015,0,0
8/20/2015,0,0
8/21/2015,1.1,1.1
8/22/2015,5.5,5.5
8/23/2015,0,0
8/24/2015,2,2
8/25/2015,13.3,13.3
8/26/2015,1.9,1.9
8/27/2015,129.4,129.4
8/28/2015,3.2,3.2
8/29/2015,1.2,1.2
8/30/2015,12.3,12.3
8/31/2015,7,7
9/1/2015,22.5,22.5
9/2/2015,13.3,13.3
9/3/2015,17.5,17.5
9/4/2015,0,0
9/5/2015,0,0
9/6/2015,0,0
9/7/2015,0,0
9/8/2015,0,0
9/9/2015,1.3,1.3
9/10/2015,0,0
9/11/2015,51.4,51.4
9/12/2015,0,0
9/13/2015,6.2,6.2
9/14/2015,0.7,0.7
9/15/2015,95.2,95.2
9/16/2015,1.5,1.5
9/17/2015,1.8,1.8
9/18/2015,0,0
9/19/2015,0,0
9/20/2015,0,0
9/21/2015,0,0
9/22/2015,8.1,8.1
9/23/2015,0,0
9/24/2015,0,0
9/25/2015,0,0
9/26/2015,0,0
9/27/2015,0,0
9/28/2015,0.5,0.5
9/29/2015,11.3,11.3
9/30/2015,22.1,22.1
10/1/2015,0,0
10/2/2015,0,0
10/3/2015,16.2,16.2
10/4/2015,26.2,26.2
10/5/2015,10.7,10.7
10/6/2015,20.7,20.7
10/7/2015,0,0
10/8/2015,11.5,11.5
10/9/2015,8.7,8.7
10/10/2015,2.8,2.8
10/11/2015,11.8,11.8
10/12/2015,0,0
10/13/2015,0,0
10/14/2015,0,0
10/15/2015,0,0
10/16/2015,0,0
10/17/2015,0,0
10/18/2015,0,0
10/19/2015,0,0
10/20/2015,0,0
10/21/2015,0,0
10/22/2015,0,0
10/23/2015,0,0
10/24/2015,0,0
10/25/2015,2.2,2.2
10/26/2015,0,0
10/27/2015,0,0
10/28/2015,0,0
10/29/2015,2.3,2.3
10/30/2015,0.7,0.7
10/31/2015,0,0
11/1/2015,4.2,4.2
11/2/2015,0,0
11/3/2015,0,0
11/4/2015,0,0
11/5/2015,0,0
11/6/2015,6.7,6.7
11/7/2015,17.8,17.8
11/8/2015,0,0
11/9/2015,0,0
11/10/2015,0,0
11/11/2015,0,0
11/12/2015,4.8,4.8
11/13/2015,0,0
11/14/2015,0,0
11/15/2015,0,0
11/16/2015,0,0
11/17/2015,0,0
11/18/2015,0,0
11/19/2015,0.5,0.5
11/20/2015,0,0
11/21/2015,0,0
11/22/2015,0,0
11/23/2015,0,0
11/24/2015,0,0
11/25/2015,0,0
11/26/2015,0,0
11/27/2015,0,0
11/28/2015,0,0
11/29/2015,0,0
11/30/2015,0,0
12/1/2015,0,0
12/2/2015,0,0
12/3/2015,0,0
12/4/2015,0,0
12/5/2015,0,0
12/6/2015,0,0
12/7/2015,0,0
12/8/2015,0,0
12/9/2015,0,0
12/10/2015,0,0
12/11/2015,0,0
12/12/2015,0,0
12/13/2015,0,0
12/14/2015,0,0
12/15/2015,0,0
12/16/2015,0,0
12/17/2015,0,0
12/18/2015,0,0
12/19/2015,0,0
12/20/2015,0,0
12/21/2015,0,0
12/22/2015,0,0
12/23/2015,0,0
12/24/2015,0,0
12/25/2015,0,0
12/26/2015,0,0
12/27/2015,0,0
12/28/2015,0,0
12/29/2015,0,0
12/30/2015,0,0
12/31/2015,0,0
1/1/2016,0,0
1/2/2016,0,0
1/3/2016,0,0
1/4/2016,0,0
1/5/2016,0,0
1/6/2016,0,0
1/7/2016,0,0
1/8/2016,0,0
1/9/2016,0,0
1/10/2016,0,0
1/11/2016,0,0
1/12/2016,0,0
1/13/2016,0,0
1/14/2016,0,0
1/15/2016,0,0
1/16/2016,0,0
1/17/2016,11.4,11.4
1/18/2016,0,0
1/19/2016,0,0
1/20/2016,0,0
1/21/2016,0,0
1/22/2016,0,0
1/23/2016,0,0
1/24/2016,0,0
1/25/2016,0,0
1/26/2016,0,0
1/27/2016,0,0
1/28/2016,0,0
1/29/2016,0,0
1/30/2016,0,0
1/31/2016,0,0
2/1/2016,0,0
2/2/2016,0,0
2/3/2016,0,0
2/4/2016,0,0
2/5/2016,0,0
2/6/2016,0,0
2/7/2016,0,0
2/8/2016,0,0
2/9/2016,0,0
2/10/2016,0,0
2/11/2016,0,0
2/12/2016,0,0
2/13/2016,0,0
2/14/2016,0,0
2/15/2016,0,0
2/16/2016,0,0
2/17/2016,0,0
2/18/2016,0,0
2/19/2016,0,0
2/20/2016,0,0
2/21/2016,0,0
2/22/2016,0,0
2/23/2016,0,0
2/24/2016,0,0
2/25/2016,0,0
2/26/2016,0,0
2/27/2016,0,0
2/28/2016,0,0
2/29/2016,0,0
3/1/2016,0,0
3/2/2016,0,0
3/3/2016,0,0
3/4/2016,0,0
3/5/2016,0,0
3/6/2016,0,0
3/7/2016,0,0
3/8/2016,0,0
3/9/2016,0,0
3/10/2016,0,0
3/11/2016,0,0
3/12/2016,0,0
3/13/2016,0,0
3/14/2016,0,0
3/15/2016,0,0
3/16/2016,0,0
3/17/2016,0,0
3/18/2016,0,0
3/19/2016,0,0
3/20/2016,0,0
3/21/2016,0,0
3/22/2016,0,0
3/23/2016,0,0
3/24/2016,0,0
3/25/2016,0,0
3/26/2016,0,0
3/27/2016,0,0
3/28/2016,0,0
3/29/2016,0,0
3/30/2016,0,0
3/31/2016,0,0
4/1/2016,0,0
4/2/2016,0,0
4/3/2016,0,0
4/4/2016,0,0
4/5/2016,2.5,2.5
4/6/2016,0,0
4/7/2016,0,0
4/8/2016,0,0
4/9/2016,0,0
4/10/2016,0,0
4/11/2016,0,0
4/12/2016,0,0
4/13/2016,0,0
4/14/2016,0,0
4/15/2016,0,0
4/16/2016,0,0
4/17/2016,0,0
4/18/2016,0,0
4/19/2016,1,1
4/20/2016,0,0
4/21/2016,0,0
4/22/2016,0,0
4/23/2016,0,0
4/24/2016,0,0
4/25/2016,0,0
4/26/2016,0,0
4/27/2016,0,0
4/28/2016,0,0
4/29/2016,2.5,2.5
4/30/2016,13.5,13.5
5/1/2016,0,0
5/2/2016,0,0
5/3/2016,0,0
5/4/2016,0,0
5/5/2016,2.1,2.1
5/6/2016,0,0
5/7/2016,0,0
5/8/2016,0,0
5/9/2016,0,0
5/10/2016,0,0
5/11/2016,4.4,4.4
5/12/2016,0,0
5/13/2016,0,0
5/14/2016,16.6,16.6
5/15/2016,0,0
5/16/2016,24,24
5/17/2016,1.7,1.7
5/18/2016,1,1
5/19/2016,23.1,23.1
5/20/2016,31.9,31.9
5/21/2016,0.5,0.5
5/22/2016,0,0
5/23/2016,97.2,97.2
5/24/2016,0,0
5/25/2016,1.4,1.4
5/26/2016,4.6,4.6
5/27/2016,38.9,38.9
5/28/2016,14.4,14.4
5/29/2016,5.5,5.5
5/30/2016,2.9,2.9
5/31/2016,54.5,54.5
6/1/2016,0,0
6/2/2016,0,0
6/3/2016,0,0
6/4/2016,0,0
6/5/2016,0,0
6/6/2016,41.5,41.5
6/7/2016,0,0
6/8/2016,9.9,9.9
6/9/2016,1,1
6/10/2016,0,0
6/11/2016,0,0
6/12/2016,0,0
6/13/2016,12,12
6/14/2016,5.4,5.4
6/15/2016,0,0
6/16/2016,2.7,2.7
6/17/2016,2.9,2.9
6/18/2016,0,0
6/19/2016,0,0
6/20/2016,57.6,57.6
6/21/2016,24.1,24.1
6/22/2016,0,0
6/23/2016,2.5,2.5
6/24/2016,40.7,40.7
6/25/2016,0,0
6/26/2016,20.5,20.5
6/27/2016,87.5,87.5
6/28/2016,43.2,43.2
6/29/2016,12.2,12.2
6/30/2016,0.6,0.6
7/1/2016,1,1
7/2/2016,0,0
7/3/2016,12.1,12.1
7/4/2016,0,0
7/5/2016,9,9
7/6/2016,51.4,51.4
7/7/2016,1.8,1.8
7/8/2016,3.2,3.2
7/9/2016,22.9,22.9
7/10/2016,0,0
7/11/2016,97.5,97.5
7/12/2016,5.5,5.5
7/13/2016,8.1,8.1
7/14/2016,1.6,1.6
7/15/2016,0,0
7/16/2016,0,0
7/17/2016,0,0
7/18/2016,0,0
7/19/2016,0,0
7/20/2016,0,0
7/21/2016,3.5,3.5
7/22/2016,17.9,17.9
7/23/2016,15.9,15.9
7/24/2016,0,0
7/25/2016,0,0
7/26/2016,54.3,54.3
7/27/2016,0,0
7/28/2016,2.3,2.3
7/29/2016,1.5,1.5
7/30/2016,0,0
7/31/2016,0,0
8/1/2016,1,1
8/2/2016,0,0
8/3/2016,1.7,1.7
8/4/2016,2,2
8/5/2016,12.9,12.9
8/6/2016,1,1
8/7/2016,0,0
8/8/2016,15.2,15.2
8/9/2016,1.4,1.4
8/10/2016,5.8,5.8
8/11/2016,53,53
8/12/2016,8.7,8.7
8/13/2016,8.3,8.3
8/14/2016,5.5,5.5
8/15/2016,4.4,4.4
8/16/2016,3.3,3.3
8/17/2016,0,0
8/18/2016,3,3
8/19/2016,1.1,1.1
8/20/2016,3,3
8/21/2016,0,0
8/22/2016,0,0
8/23/2016,73.7,73.7
8/24/2016,0,0
8/25/2016,3,3
8/26/2016,0,0
8/27/2016,0,0
8/28/2016,37.6,37.6
8/29/2016,3,3
8/30/2016,11.6,11.6
8/31/2016,0,0
9/1/2016,23.2,23.2
9/2/2016,0,0
9/3/2016,0,0
9/4/2016,0,0
9/5/2016,1.4,1.4
9/6/2016,28.2,28.2
9/7/2016,2.6,2.6
9/8/2016,0.8,0.8
9/9/2016,0,0
9/10/2016,0,0
9/11/2016,55.5,55.5
9/12/2016,31.9,31.9
9/13/2016,23.9,23.9
9/14/2016,110,110
9/15/2016,0.5,0.5
9/16/2016,0,0
9/17/2016,0.6,0.6
9/18/2016,0,0
9/19/2016,34.4,34.4
9/20/2016,0,0
9/21/2016,9.2,9.2
9/22/2016,3.2,3.2
9/23/2016,37.4,37.4
9/24/2016,0.9,0.9
9/25/2016,2.8,2.8
9/26/2016,0,0
9/27/2016,0,0
9/28/2016,20.6,20.6
9/29/2016,20,20
9/30/2016,28.6,28.6
10/1/2016,0,0
10/2/2016,0,0
10/3/2016,0,0
10/4/2016,0,0
10/5/2016,0,0
10/6/2016,31.2,31.2
10/7/2016,1.2,1.2
10/8/2016,6.4,6.4
10/9/2016,5.8,5.8
10/10/2016,0,0
10/11/2016,0,0
10/12/2016,0,0
10/13/2016,0,0
10/14/2016,1.1,1.1
10/15/2016,9,9
10/16/2016,0,0
10/17/2016,2.8,2.8
10/18/2016,0,0
10/19/2016,0,0
10/20/2016,0,0
10/21/2016,0,0
10/22/2016,0,0
10/23/2016,23.6,23.6
10/24/2016,14.8,14.8
10/25/2016,6,6
10/26/2016,0.6,0.6
10/27/2016,2,2
10/28/2016,0,0
10/29/2016,0,0
10/30/2016,0,0
10/31/2016,0,0
11/1/2016,0,0
11/2/2016,0,0
11/3/2016,0,0
11/4/2016,0,0
11/5/2016,0,0
11/6/2016,0,0
11/7/2016,0.9,0.9
11/8/2016,16.8,16.8
11/9/2016,0,0
11/10/2016,35.5,35.5
11/11/2016,0,0
11/12/2016,0,0
11/13/2016,0,0
11/14/2016,0,0
11/15/2016,0,0
11/16/2016,0,0
11/17/2016,0,0
11/18/2016,0,0
11/19/2016,0,0
11/20/2016,0,0
11/21/2016,0,0
11/22/2016,0,0
11/23/2016,0,0
11/24/2016,0,0
11/25/2016,0,0
11/26/2016,0,0
11/27/2016,0,0
11/28/2016,0,0
11/29/2016,0,0
11/30/2016,0,0
12/1/2016,0,0
12/2/2016,0,0
12/3/2016,0,0
12/4/2016,0,0
12/5/2016,0,0
12/6/2016,0,0
12/7/2016,0,0
12/8/2016,0,0
12/9/2016,0,0
12/10/2016,0,0
12/11/2016,0,0
12/12/2016,0,0
12/13/2016,0,0
12/14/2016,0,0
12/15/2016,5.2,5.2
12/16/2016,0,0
12/17/2016,0,0
12/18/2016,0,0
12/19/2016,0,0
12/20/2016,0,0
12/21/2016,0,0
12/22/2016,0,0
12/23/2016,0,0
12/24/2016,0,0
12/25/2016,0,0
12/26/2016,0,0
12/27/2016,0,0
12/28/2016,0,0
12/29/2016,0,0
12/30/2016,0,0
12/31/2016,0,0
1/1/2017,0,0
1/2/2017,0,0
1/3/2017,0,0
1/4/2017,0,0
1/5/2017,0,0
1/6/2017,0,0
1/7/2017,0,0
1/8/2017,0,0
1/9/2017,0,0
1/10/2017,0,0
1/11/2017,0,0
1/12/2017,0,0
1/13/2017,0,0
1/14/2017,0,0
1/15/2017,0,0
1/16/2017,0,0
1/17/2017,1,1
1/18/2017,0,0
1/19/2017,0,0
1/20/2017,0,0
1/21/2017,0,0
1/22/2017,0,0
1/23/2017,0,0
1/24/2017,0,0
1/25/2017,0,0
1/26/2017,0,0
1/27/2017,0,0
1/28/2017,0,0
1/29/2017,0,0
1/30/2017,0,0
1/31/2017,0,0
2/1/2017,0,0
2/2/2017,0,0
2/3/2017,0,0
2/4/2017,0,0
2/5/2017,0,0
2/6/2017,0,0
2/7/2017,0,0
2/8/2017,0,0
2/9/2017,0,0
2/10/2017,0,0
2/11/2017,0,0
2/12/2017,0,0
2/13/2017,0,0
2/14/2017,0,0
2/15/2017,0,0
2/16/2017,0,0
2/17/2017,0,0
2/18/2017,0,0
2/19/2017,0,0
2/20/2017,0,0
2/21/2017,0,0
2/22/2017,0,0
2/23/2017,0,0
2/24/2017,1,1
2/25/2017,0,0
2/26/2017,0,0
2/27/2017,0,0
2/28/2017,0,0
3/1/2017,0,0
3/2/2017,0,0
3/3/2017,0,0
3/4/2017,0,0
3/5/2017,0,0
3/6/2017,0,0
3/7/2017,0,0
3/8/2017,0,0
3/9/2017,0,0
3/10/2017,0,0
3/11/2017,0,0
3/12/2017,0,0
3/13/2017,0,0
3/14/2017,0,0
3/15/2017,25.1,25.1
3/16/2017,0,0
3/17/2017,0,0
3/18/2017,0,0
3/19/2017,0,0
3/20/2017,5.5,5.5
3/21/2017,15.2,15.2
3/22/2017,103.5,103.5
3/23/2017,0,0
3/24/2017,0,0
3/25/2017,0,0
3/26/2017,0,0
3/27/2017,0,0
3/28/2017,0,0
3/29/2017,0,0
3/30/2017,3.8,3.8
3/31/2017,0,0
4/1/2017,0,0
4/2/2017,0,0
4/3/2017,0,0
4/4/2017,0,0
4/5/2017,0,0
4/6/2017,0,0
4/7/2017,0,0
4/8/2017,0,0
4/9/2017,0,0
4/10/2017,0,0
4/11/2017,0,0
4/12/2017,0,0
4/13/2017,0,0
4/14/2017,0,0
4/15/2017,11.8,11.8
4/16/2017,0,0
4/17/2017,0,0
4/18/2017,0,0
4/19/2017,0,0
4/20/2017,0,0
4/21/2017,0,0
4/22/2017,0,0
4/23/2017,0,0
4/24/2017,0,0
4/25/2017,12.6,12.6
4/26/2017,0,0
4/27/2017,0,0
4/28/2017,36.7,36.7
4/29/2017,0,0
4/30/2017,17.7,17.7
5/1/2017,0,0
5/2/2017,0,0
5/3/2017,0,0
5/4/2017,0,0
5/5/2017,0,0
5/6/2017,0,0
5/7/2017,65.4,65.4
5/8/2017,6,6
5/9/2017,0,0
5/10/2017,0,0
5/11/2017,2.5,2.5
5/12/2017,4.9,4.9
5/13/2017,0,0
5/14/2017,23.2,23.2
5/15/2017,15.9,15.9
5/16/2017,4.6,4.6
5/17/2017,2.4,2.4
5/18/2017,17.1,17.1
5/19/2017,8.6,8.6
5/20/2017,0.5,0.5
5/21/2017,0,0
5/22/2017,0,0
5/23/2017,0,0
5/24/2017,64,64
5/25/2017,28.5,28.5
5/26/2017,12.6,12.6
5/27/2017,5.2,5.2
5/28/2017,24.4,24.4
5/29/2017,0,0
5/30/2017,48.7,48.7
5/31/2017,27.4,27.4
6/1/2017,0,0
6/2/2017,0,0
6/3/2017,3.3,3.3
6/4/2017,0,0
6/5/2017,0,0
6/6/2017,0,0
6/7/2017,3.6,3.6
6/8/2017,13.6,13.6
6/9/2017,3.6,3.6
6/10/2017,22.7,22.7
6/11/2017,76.8,76.8
6/12/2017,17,17
6/13/2017,0,0
6/14/2017,25,25
6/15/2017,73.5,73.5
6/16/2017,0,0
6/17/2017,0,0
6/18/2017,3.6,3.6
6/19/2017,28.6,28.6
6/20/2017,0,0
6/21/2017,0,0
6/22/2017,0,0
6/23/2017,27,27
6/24/2017,0,0
6/25/2017,11.5,11.5
6/26/2017,1.5,1.5
6/27/2017,0,0
6/28/2017,0,0
6/29/2017,9.2,9.2
6/30/2017,19,19
7/1/2017,0,0
7/2/2017,4.8,4.8
7/3/2017,16.7,16.7
7/4/2017,0,0
7/5/2017,12.7,12.7
7/6/2017,2.3,2.3
7/7/2017,29.8,29.8
7/8/2017,16,16
7/9/2017,0.5,0.5
7/10/2017,2.8,2.8
7/11/2017,52.8,52.8
7/12/2017,6.4,6.4
7/13/2017,0.7,0.7
7/14/2017,2.3,2.3
7/15/2017,77.5,77.5
7/16/2017,69.8,69.8
7/17/2017,45.1,45.1
7/18/2017,2.7,2.7
7/19/2017,0.8,0.8
7/20/2017,3,3
7/21/2017,100.1,100.1
7/22/2017,0.9,0.9
7/23/2017,9.7,9.7
7/24/2017,2.7,2.7
7/25/2017,105,105
7/26/2017,97.2,97.2
7/27/2017,39.5,39.5
7/28/2017,29.5,29.5
7/29/2017,11.8,11.8
7/30/2017,0,0
7/31/2017,0,0
8/1/2017,0,0
8/2/2017,0,0
8/3/2017,17,17
8/4/2017,25.5,25.5
8/5/2017,55.4,55.4
8/6/2017,1.6,1.6
8/7/2017,13.1,13.1
8/8/2017,0,0
8/9/2017,0,0
8/10/2017,0,0
8/11/2017,0,0
8/12/2017,0,0
8/13/2017,0,0
8/14/2017,0,0
8/15/2017,0,0
8/16/2017,40.5,40.5
8/17/2017,0,0
8/18/2017,7.2,7.2
8/19/2017,14.5,14.5
8/20/2017,12.6,12.6
8/21/2017,11.6,11.6
8/22/2017,0,0
8/23/2017,0,0
8/24/2017,0,0
8/25/2017,0.6,0.6
8/26/2017,3.5,3.5
8/27/2017,0.6,0.6
8/28/2017,12,12
8/29/2017,6.5,6.5
8/30/2017,7.8,7.8
8/31/2017,0,0
9/1/2017,0,0
9/2/2017,44,44
9/3/2017,5,5
9/4/2017,12.9,12.9
9/5/2017,0,0
9/6/2017,0,0
9/7/2017,12.5,12.5
9/8/2017,0,0
9/9/2017,0,0
9/10/2017,4.1,4.1
9/11/2017,0,0
9/12/2017,47.3,47.3
9/13/2017,0,0
9/14/2017,0,0
9/15/2017,5.7,5.7
9/16/2017,24.7,24.7
9/17/2017,0,0
9/18/2017,0,0
9/19/2017,0,0
9/20/2017,10,10
9/21/2017,0,0
9/22/2017,4.7,4.7
9/23/2017,5.8,5.8
9/24/2017,7.9,7.9
9/25/2017,32.4,32.4
9/26/2017,28.3,28.3
9/27/2017,5.4,5.4
9/28/2017,0,0
9/29/2017,4.1,4.1
9/30/2017,2.5,2.5
10/1/2017,1.1,1.1
10/2/2017,16.8,16.8
10/3/2017,6.2,6.2
10/4/2017,3.3,3.3
10/5/2017,6.4,6.4
10/6/2017,2.8,2.8
10/7/2017,0,0
10/8/2017,18.7,18.7
10/9/2017,0,0
10/10/2017,13.4,13.4
10/11/2017,0,0
10/12/2017,22.7,22.7
10/13/2017,0,0
10/14/2017,0,0
10/15/2017,0,0
10/16/2017,0.7,0.7
10/17/2017,1.2,1.2
10/18/2017,5.3,5.3
10/19/2017,17.1,17.1
10/20/2017,0,0
10/21/2017,0,0
10/22/2017,0,0
10/23/2017,0,0
10/24/2017,0,0
10/25/2017,0,0
10/26/2017,0,0
10/27/2017,0,0
10/28/2017,0,0
10/29/2017,0,0
10/30/2017,0,0
10/31/2017,0,0
11/1/2017,2.3,2.3
11/2/2017,0,0
11/3/2017,0,0
11/4/2017,0,0
11/5/2017,1.5,1.5
11/6/2017,1.7,1.7
11/7/2017,0,0
11/8/2017,0,0
11/9/2017,0,0
11/10/2017,0,0
11/11/2017,0,0
11/12/2017,0,0
11/13/2017,0,0
11/14/2017,0,0
11/15/2017,0,0
11/16/2017,24.3,24.3
11/17/2017,0,0
11/18/2017,0,0
11/19/2017,0,0
11/20/2017,0,0
11/21/2017,1,1
11/22/2017,0,0
11/23/2017,0,0
11/24/2017,0,0
11/25/2017,0,0
11/26/2017,0,0
11/27/2017,0,0
11/28/2017,0,0
11/29/2017,0,0
11/30/2017,0,0
12/1/2017,0,0
12/2/2017,0,0
12/3/2017,0,0
12/4/2017,0,0
12/5/2017,0,0
12/6/2017,0,0
12/7/2017,0,0
12/8/2017,0,0
12/9/2017,0,0
12/10/2017,0,0
12/11/2017,0,0
12/12/2017,0,0
12/13/2017,0,0
12/14/2017,0,0
12/15/2017,0,0
12/16/2017,0,0
12/17/2017,0,0
12/18/2017,0,0
12/19/2017,0,0
12/20/2017,0,0
12/21/2017,0,0
12/22/2017,0,0
12/23/2017,0,0
12/24/2017,0,0
12/25/2017,0,0
12/26/2017,0,0
12/27/2017,2,2
12/28/2017,0,0
12/29/2017,0,0
12/30/2017,0,0
12/31/2017,0,0
1/1/2018,0,0
1/2/2018,0,0
1/3/2018,0,0
1/4/2018,0,0
1/5/2018,0,0
1/6/2018,0,0
1/7/2018,0,0
1/8/2018,4,4
1/9/2018,0,0
1/10/2018,0,0
1/11/2018,0,0
1/12/2018,0,0
1/13/2018,0,0
1/14/2018,0,0
1/15/2018,0,0
1/16/2018,0,0
1/17/2018,0,0
1/18/2018,0,0
1/19/2018,0,0
1/20/2018,0,0
1/21/2018,0,0
1/22/2018,0,0
1/23/2018,0,0
1/24/2018,0,0
1/25/2018,0,0
1/26/2018,0,0
1/27/2018,0,0
1/28/2018,0,0
1/29/2018,0,0
1/30/2018,0,0
1/31/2018,0,0
2/1/2018,0,0
2/2/2018,0,0
2/3/2018,0,0
2/4/2018,0,0
2/5/2018,0,0
2/6/2018,0,0
2/7/2018,0,0
2/8/2018,0,0
2/9/2018,0,0
2/10/2018,0,0
2/11/2018,0,0
2/12/2018,0,0
2/13/2018,0,0
2/14/2018,0,0
2/15/2018,0,0
2/16/2018,0,0
2/17/2018,0,0
2/18/2018,0,0
2/19/2018,0,0
2/20/2018,0,0
2/21/2018,0,0
2/22/2018,0,0
2/23/2018,4,4
2/24/2018,0,0
2/25/2018,0,0
2/26/2018,0,0
2/27/2018,0,0
2/28/2018,0,0
3/1/2018,0,0
3/2/2018,1.7,1.7
3/3/2018,0,0
3/4/2018,0,0
3/5/2018,0,0
3/6/2018,48.2,48.2
3/7/2018,4.2,4.2
3/8/2018,0,0
3/9/2018,0,0
3/10/2018,0,0
3/11/2018,0,0
3/12/2018,0,0
3/13/2018,0,0
3/14/2018,0,0
3/15/2018,40,40
3/16/2018,0,0
3/17/2018,0,0
3/18/2018,0,0
3/19/2018,0,0
3/20/2018,18.3,18.3
3/21/2018,33,33
3/22/2018,0,0
3/23/2018,0,0
3/24/2018,0,0
3/25/2018,0,0
3/26/2018,0,0
3/27/2018,0,0
3/28/2018,0,0
3/29/2018,4.3,4.3
3/30/2018,0,0
3/31/2018,0,0
4/1/2018,0,0
4/2/2018,0,0
4/3/2018,0,0
4/4/2018,0,0
4/5/2018,0,0
4/6/2018,0,0
4/7/2018,0,0
4/8/2018,0,0
4/9/2018,0,0
4/10/2018,0,0
4/11/2018,0,0
4/12/2018,0,0
4/13/2018,0,0
4/14/2018,0,0
4/15/2018,28,28
4/16/2018,0,0
4/17/2018,0,0
4/18/2018,6.4,6.4
4/19/2018,0,0
4/20/2018,0,0
4/21/2018,154.5,154.5
4/22/2018,40.8,40.8
4/23/2018,0,0
4/24/2018,0,0
4/25/2018,0,0
4/26/2018,0,0
4/27/2018,0.9,0.9
4/28/2018,0,0
4/29/2018,33.2,33.2
4/30/2018,0,0
5/1/2018,0,0
5/2/2018,42.1,42.1
5/3/2018,0,0
5/4/2018,0,0
5/5/2018,0,0
5/6/2018,4.6,4.6
5/7/2018,2.6,2.6
5/8/2018,0,0
5/9/2018,0,0
5/10/2018,8,8
5/11/2018,12.3,12.3
5/12/2018,6.8,6.8
5/13/2018,0,0
5/14/2018,0,0
5/15/2018,0,0
5/16/2018,0,0
5/17/2018,0,0
5/18/2018,33.3,33.3
5/19/2018,0,0
5/20/2018,0,0
5/21/2018,0,0
5/22/2018,0,0
5/23/2018,0.8,0.8
5/24/2018,19.6,19.6
5/25/2018,12.5,12.5
5/26/2018,0,0
5/27/2018,26.6,26.6
5/28/2018,0,0
5/29/2018,0,0
5/30/2018,3.5,3.5
5/31/2018,3,3
6/1/2018,18.4,18.4
6/2/2018,24.4,24.4
6/3/2018,29.2,29.2
6/4/2018,39,39
6/5/2018,0,0
6/6/2018,1.6,1.6
6/7/2018,11.5,11.5
6/8/2018,31.6,31.6
6/9/2018,15.8,15.8
6/10/2018,4.8,4.8
6/11/2018,30.4,30.4
6/12/2018,4.2,4.2
6/13/2018,0,0
6/14/2018,0,0
6/15/2018,0.5,0.5
6/16/2018,24.2,24.2
6/17/2018,37.8,37.8
6/18/2018,1.5,1.5
6/19/2018,0,0
6/20/2018,0,0
6/21/2018,0,0
6/22/2018,3.6,3.6
6/23/2018,0,0
6/24/2018,0,0
6/25/2018,9,9
6/26/2018,38.9,38.9
6/27/2018,24.9,24.9
6/28/2018,1,1
6/29/2018,12,12
6/30/2018,0,0
7/1/2018,37.3,37.3
7/2/2018,0,0
7/3/2018,5.6,5.6
7/4/2018,0,0
7/5/2018,0,0
7/6/2018,0,0
7/7/2018,0,0
7/8/2018,46.4,46.4
7/9/2018,3,3
7/10/2018,11.8,11.8
7/11/2018,21.1,21.1
7/12/2018,4.1,4.1
7/13/2018,5.7,5.7
7/14/2018,2.4,2.4
7/15/2018,32.1,32.1
7/16/2018,11.3,11.3
7/17/2018,6.7,6.7
7/18/2018,21.4,21.4
7/19/2018,58.1,58.1
7/20/2018,15.8,15.8
7/21/2018,21,21
7/22/2018,1,1
7/23/2018,3.1,3.1
7/24/2018,13.7,13.7
7/25/2018,23.2,23.2
7/26/2018,32.2,32.2
7/27/2018,42.7,42.7
7/28/2018,48.6,48.6
7/29/2018,21.7,21.7
7/30/2018,36.1,36.1
7/31/2018,26.1,26.1
8/1/2018,0,0
8/2/2018,1,1
8/3/2018,2.5,2.5
8/4/2018,15.2,15.2
8/5/2018,2.5,2.5
8/6/2018,47.3,47.3
8/7/2018,9.8,9.8
8/8/2018,2.9,2.9
8/9/2018,67.5,67.5
8/10/2018,21,21
8/11/2018,1.6,1.6
8/12/2018,4,4
8/13/2018,4.1,4.1
8/14/2018,18,18
8/15/2018,25.9,25.9
8/16/2018,1.8,1.8
8/17/2018,1.5,1.5
8/18/2018,21.5,21.5
8/19/2018,41,41
8/20/2018,0,0
8/21/2018,8.5,8.5
8/22/2018,0,0
8/23/2018,22.3,22.3
8/24/2018,21.4,21.4
8/25/2018,1,1
8/26/2018,58,58
8/27/2018,13.5,13.5
8/28/2018,32.4,32.4
8/29/2018,0.8,0.8
8/30/2018,16.8,16.8
8/31/2018,0,0
9/1/2018,0,0
9/2/2018,0,0
9/3/2018,35.5,35.5
9/4/2018,16.6,16.6
9/5/2018,14.4,14.4
9/6/2018,0,0
9/7/2018,0,0
9/8/2018,11.5,11.5
9/9/2018,0,0
9/10/2018,0,0
9/11/2018,0,0
9/12/2018,17.5,17.5
9/13/2018,44.5,44.5
9/14/2018,95.2,95.2
9/15/2018,2,2
9/16/2018,1,1
9/17/2018,0,0
9/18/2018,2.8,2.8
9/19/2018,1,1
9/20/2018,0,0
9/21/2018,0,0
9/22/2018,4.2,4.2
9/23/2018,5.8,5.8
9/24/2018,13.7,13.7
9/25/2018,6.4,6.4
9/26/2018,0,0
9/27/2018,0,0
9/28/2018,0,0
9/29/2018,8.3,8.3
9/30/2018,0,0
10/1/2018,0,0
10/2/2018,28,28
10/3/2018,0,0
10/4/2018,0,0
10/5/2018,1,1
10/6/2018,0,0
10/7/2018,0,0
10/8/2018,0,0
10/9/2018,0,0
10/10/2018,0,0
10/11/2018,0,0
10/12/2018,0,0
10/13/2018,0,0
10/14/2018,0,0
10/15/2018,3.2,3.2
10/16/2018,0,0
10/17/2018,0,0
10/18/2018,0,0
10/19/2018,5.9,5.9
10/20/2018,0,0
10/21/2018,0,0
10/22/2018,0,0
10/23/2018,1.1,1.1
10/24/2018,15.6,15.6
10/25/2018,0,0
10/26/2018,0,0
10/27/2018,0,0
10/28/2018,0,0
10/29/2018,0,0
10/30/2018,0,0
10/31/2018,0,0
11/1/2018,0,0
11/2/2018,0,0
11/3/2018,0,0
11/4/2018,0,0
11/5/2018,0,0
11/6/2018,0,0
11/7/2018,0,0
11/8/2018,0,0
11/9/2018,15.4,15.4
11/10/2018,1,1
11/11/2018,2.7,2.7
11/12/2018,0,0
11/13/2018,0,0
11/14/2018,0,0
11/15/2018,0,0
11/16/2018,0,0
11/17/2018,0,0
11/18/2018,0,0
11/19/2018,0,0
11/20/2018,0,0
11/21/2018,0.7,0.7
11/22/2018,0,0
11/23/2018,0,0
11/24/2018,0,0
11/25/2018,0,0
11/26/2018,0,0
11/27/2018,0,0
11/28/2018,0,0
11/29/2018,0,0
11/30/2018,0,0
12/1/2018,0,0
12/2/2018,0,0
12/3/2018,0,0
12/4/2018,0,0
12/5/2018,0,0
12/6/2018,0,0
12/7/2018,0,0
12/8/2018,0,0
12/9/2018,0,0
12/10/2018,0,0
12/11/2018,0,0
12/12/2018,0,0
12/13/2018,0,0
12/14/2018,0,0
12/15/2018,0,0
12/16/2018,0,0
12/17/2018,0,0
12/18/2018,0,0
12/19/2018,0,0
12/20/2018,0,0
12/21/2018,0,0
12/22/2018,0,0
12/23/2018,0,0
12/24/2018,0,0
12/25/2018,0,0
12/26/2018,0,0
12/27/2018,0,0
12/28/2018,0,0
12/29/2018,0,0
12/30/2018,0,0
12/31/2018,0,0
1/1/2019,0,0
1/2/2019,0,0
1/3/2019,0,0
1/4/2019,0,0
1/5/2019,0,0
1/6/2019,0,0
1/7/2019,0,0
1/8/2019,0,0
1/9/2019,0,0
1/10/2019,0,0
1/11/2019,0,0
1/12/2019,0,0
1/13/2019,0,0
1/14/2019,0,0
1/15/2019,0,0
1/16/2019,0,0
1/17/2019,0,0
1/18/2019,0,0
1/19/2019,0,0
1/20/2019,0,0
1/21/2019,0,0
1/22/2019,0,0
1/23/2019,0,0
1/24/2019,0,0
1/25/2019,0,0
1/26/2019,0,0
1/27/2019,0,0
1/28/2019,0,0
1/29/2019,0,0
1/30/2019,0,0
1/31/2019,0,0
2/1/2019,0,0
2/2/2019,0,0
2/3/2019,0,0
2/4/2019,0,0
2/5/2019,0,0
2/6/2019,0,0
2/7/2019,0,0
2/8/2019,0,0
2/9/2019,0,0
2/10/2019,0,0
2/11/2019,0,0
2/12/2019,0,0
2/13/2019,0,0
2/14/2019,0,0
2/15/2019,0,0
2/16/2019,0,0
2/17/2019,0,0
2/18/2019,0,0
2/19/2019,0,0
2/20/2019,0,0
2/21/2019,0,0
2/22/2019,0,0
2/23/2019,0,0
2/24/2019,0,0
2/25/2019,0,0
2/26/2019,0,0
2/27/2019,0,0
2/28/2019,0,0
3/1/2019,0,0
3/2/2019,0,0
3/3/2019,0,0
3/4/2019,0,0
3/5/2019,0,0
3/6/2019,0,0
3/7/2019,0,0
3/8/2019,0,0
3/9/2019,0,0
3/10/2019,0,0
3/11/2019,0,0
3/12/2019,0,0
3/13/2019,0,0
3/14/2019,0,0
3/15/2019,0,0
3/16/2019,0,0
3/17/2019,0,0
3/18/2019,0,0
3/19/2019,0,0
3/20/2019,0,0
3/21/2019,0,0
3/22/2019,0,0
3/23/2019,0,0
3/24/2019,0,0
3/25/2019,0,0
3/26/2019,0,0
3/27/2019,0,0
3/28/2019,0,0
3/29/2019,0,0
3/30/2019,4.5,4.5
3/31/2019,0,0
4/1/2019,1.6,1.6
4/2/2019,0,0
4/3/2019,0,0
4/4/2019,0,0
4/5/2019,20.5,20.5
4/6/2019,18.5,18.5
4/7/2019,0,0
4/8/2019,0,0
4/9/2019,0,0
4/10/2019,0,0
4/11/2019,0,0
4/12/2019,0,0
4/13/2019,0,0
4/14/2019,0,0
4/15/2019,12,12
4/16/2019,0,0
4/17/2019,0,0
4/18/2019,0,0
4/19/2019,0,0
4/20/2019,0,0
4/21/2019,0,0
4/22/2019,0,0
4/23/2019,0,0
4/24/2019,0,0
4/25/2019,0,0
4/26/2019,12.4,12.4
4/27/2019,0,0
4/28/2019,0,0
4/29/2019,1.2,1.2
4/30/2019,0,0
5/1/2019,0,0
5/2/2019,0,0
5/3/2019,0,0
5/4/2019,0,0
5/5/2019,11.3,11.3
5/6/2019,0,0
5/7/2019,52.2,52.2
5/8/2019,0,0
5/9/2019,30.5,30.5
5/10/2019,51.8,51.8
5/11/2019,5.3,5.3
5/12/2019,12,12
5/13/2019,0,0
5/14/2019,7.7,7.7
5/15/2019,0,0
5/16/2019,1,1
5/17/2019,0,0
5/18/2019,0,0
5/19/2019,0,0
5/20/2019,0,0
5/21/2019,0,0
5/22/2019,0,0
5/23/2019,2.3,2.3
5/24/2019,0,0
5/25/2019,0,0
5/26/2019,0.8,0.8
5/27/2019,2.8,2.8
5/28/2019,6.5,6.5
5/29/2019,23.7,23.7
5/30/2019,0,0
5/31/2019,2.5,2.5
6/1/2019,1.7,1.7
6/2/2019,0,0
6/3/2019,0,0
6/4/2019,0,0
6/5/2019,1.5,1.5
6/6/2019,17,17
6/7/2019,0,0
6/8/2019,0,0
6/9/2019,0,0
6/10/2019,0,0
6/11/2019,0,0
6/12/2019,4.1,4.1
6/13/2019,0,0
6/14/2019,0,0
6/15/2019,0,0
6/16/2019,80.6,80.6
6/17/2019,10.5,10.5
6/18/2019,30,30
6/19/2019,0,0
6/20/2019,0,0
6/21/2019,0,0
6/22/2019,0,0
6/23/2019,1,1
6/24/2019,0,0
6/25/2019,0,0
6/26/2019,14.2,14.2
6/27/2019,0,0
6/28/2019,0,0
6/29/2019,3.5,3.5
6/30/2019,0,0
7/1/2019,1.7,1.7
7/2/2019,23.8,23.8
7/3/2019,25.8,25.8
7/4/2019,2.4,2.4
7/5/2019,1,1
7/6/2019,0,0
7/7/2019,0,0
7/8/2019,1,1
7/9/2019,0,0
7/10/2019,30.9,30.9
7/11/2019,17.7,17.7
7/12/2019,1,1
7/13/2019,0,0
7/14/2019,2,2
7/15/2019,16.5,16.5
7/16/2019,8.5,8.5
7/17/2019,56.4,56.4
7/18/2019,0,0
7/19/2019,0,0
7/20/2019,0,0
7/21/2019,0,0
7/22/2019,53.1,53.1
7/23/2019,22.9,22.9
7/24/2019,74.8,74.8
7/25/2019,15.6,15.6
7/26/2019,26.9,26.9
7/27/2019,0,0
7/28/2019,2,2
7/29/2019,3.2,3.2
7/30/2019,18.7,18.7
7/31/2019,65.4,65.4
8/1/2019,8.3,8.3
8/2/2019,13.5,13.5
8/3/2019,6.2,6.2
8/4/2019,1.5,1.5
8/5/2019,2.6,2.6
8/6/2019,10.5,10.5
8/7/2019,2.7,2.7
8/8/2019,0,0
8/9/2019,0,0
8/10/2019,89.5,89.5
8/11/2019,9.6,9.6
8/12/2019,0,0
8/13/2019,0,0
8/14/2019,2.5,2.5
8/15/2019,42.6,42.6
8/16/2019,0.5,0.5
8/17/2019,0.5,0.5
8/18/2019,6.7,6.7
8/19/2019,0,0
8/20/2019,43.9,43.9
8/21/2019,26.7,26.7
8/22/2019,0,0
8/23/2019,37,37
8/24/2019,59.7,59.7
8/25/2019,44.3,44.3
8/26/2019,15.2,15.2
8/27/2019,66.7,66.7
8/28/2019,0,0
8/29/2019,42,42
8/30/2019,85.4,85.4
8/31/2019,14.8,14.8
9/1/2019,1.5,1.5
9/2/2019,59.4,59.4
9/3/2019,219.4,219.4
9/4/2019,289.4,289.4
9/5/2019,57.7,57.7
9/6/2019,1,1
9/7/2019,0,0
9/8/2019,0,0
9/9/2019,7.9,7.9
9/10/2019,2.5,2.5
9/11/2019,10.4,10.4
9/12/2019,0,0
9/13/2019,9.6,9.6
9/14/2019,9,9
9/15/2019,1,1
9/16/2019,5.9,5.9
9/17/2019,24,24
9/18/2019,0,0
9/19/2019,1.5,1.5
9/20/2019,5.5,5.5
9/21/2019,15,15
9/22/2019,24.4,24.4
9/23/2019,2.8,2.8
9/24/2019,0,0
9/25/2019,0,0
9/26/2019,0,0
9/27/2019,0,0
9/28/2019,0,0
9/29/2019,0,0
9/30/2019,0,0
10/1/2019,0,0
10/2/2019,0,0
10/3/2019,0,0
10/4/2019,2.4,2.4
10/5/2019,24,24
10/6/2019,0,0
10/7/2019,0,0
10/8/2019,18.2,18.2
10/9/2019,2.5,2.5
10/10/2019,1.2,1.2
10/11/2019,0,0
10/12/2019,1,1
10/13/2019,0,0
10/14/2019,0,0
10/15/2019,0,0
10/16/2019,0,0
10/17/2019,0,0
10/18/2019,0,0
10/19/2019,0,0
10/20/2019,0,0
10/21/2019,0,0
10/22/2019,0,0
10/23/2019,0,0
10/24/2019,0,0
10/25/2019,0,0
10/26/2019,0,0
10/27/2019,1.1,1.1
10/28/2019,0,0
10/29/2019,0,0
10/30/2019,0,0
10/31/2019,0.6,0.6
11/1/2019,12,12
11/2/2019,0,0
11/3/2019,15.7,15.7
11/4/2019,0,0
11/5/2019,0,0
11/6/2019,0,0
11/7/2019,0,0
11/8/2019,0,0
11/9/2019,0,0
11/10/2019,0,0
11/11/2019,0,0
11/12/2019,4.3,4.3
11/13/2019,1,1
11/14/2019,0,0
11/15/2019,0,0
11/16/2019,0,0
11/17/2019,0,0
11/18/2019,0,0
11/19/2019,0,0
11/20/2019,0,0
11/21/2019,0,0
11/22/2019,0,0
11/23/2019,0,0
11/24/2019,0,0
11/25/2019,0,0
11/26/2019,0,0
11/27/2019,0,0
11/28/2019,0,0
11/29/2019,0,0
11/30/2019,0,0
12/1/2019,0,0
12/2/2019,0,0
12/3/2019,0,0
12/4/2019,0,0
12/5/2019,0,0
12/6/2019,0,0
12/7/2019,0,0
12/8/2019,0,0
12/9/2019,0,0
12/10/2019,0,0
12/11/2019,0,0
12/12/2019,0,0
12/13/2019,0,0
12/14/2019,0,0
12/15/2019,0,0
12/16/2019,0,0
12/17/2019,0,0
12/18/2019,0,0
12/19/2019,0,0
12/20/2019,0,0
12/21/2019,0,0
12/22/2019,0,0
12/23/2019,0,0
12/24/2019,0,0
12/25/2019,0,0
12/26/2019,0,0
12/27/2019,0,0
12/28/2019,0,0
12/29/2019,0,0
12/30/2019,0,0
12/31/2019,0,0
1/1/2020,0,0
1/2/2020,0,0
1/3/2020,0,0
1/4/2020,0,0
1/5/2020,0,0
1/6/2020,0,0
1/7/2020,0,0
1/8/2020,0,0
1/9/2020,0,0
1/10/2020,0,0
1/11/2020,0,0
1/12/2020,0,0
1/13/2020,0,0
1/14/2020,0,0
1/15/2020,0,0
1/16/2020,0,0
1/17/2020,0,0
1/18/2020,0,0
1/19/2020,0,0
1/20/2020,0,0
1/21/2020,0,0
1/22/2020,0,0
1/23/2020,0,0
1/24/2020,0,0
1/25/2020,0,0
1/26/2020,0,0
1/27/2020,0,0
1/28/2020,0,0
1/29/2020,0,0
1/30/2020,0,0
1/31/2020,0,0
2/1/2020,0,0
2/2/2020,0,0
2/3/2020,0,0
2/4/2020,0,0
2/5/2020,0,0
2/6/2020,0,0
2/7/2020,0,0
2/8/2020,0,0
2/9/2020,0,0
2/10/2020,0,0
2/11/2020,0,0
2/12/2020,0,0
2/13/2020,0,0
2/14/2020,0,0
2/15/2020,0,0
2/16/2020,0,0
2/17/2020,0,0
2/18/2020,0,0
2/19/2020,0,0
2/20/2020,0,0
2/21/2020,0,0
2/22/2020,0,0
2/23/2020,0,0
2/24/2020,0,0
2/25/2020,0,0
2/26/2020,0,0
2/27/2020,0,0
2/28/2020,0,0
2/29/2020,0,0
3/1/2020,0,0
3/2/2020,0,0
3/3/2020,0,0
3/4/2020,0,0
3/5/2020,0,0
3/6/2020,0,0
3/7/2020,0.6,0.6
3/8/2020,0,0
3/9/2020,0,0
3/10/2020,0,0
3/11/2020,0,0
3/12/2020,0,0
3/13/2020,0,0
3/14/2020,0,0
3/15/2020,0,0
3/16/2020,0,0
3/17/2020,0,0
3/18/2020,0,0
3/19/2020,0,0
3/20/2020,0,0
3/21/2020,0,0
3/22/2020,0,0
3/23/2020,0,0
3/24/2020,0,0
3/25/2020,6.6,6.6
3/26/2020,0,0
3/27/2020,0,0
3/28/2020,0,0
3/29/2020,0,0
3/30/2020,0,0
3/31/2020,0,0
4/1/2020,0,0
4/2/2020,7.6,7.6
4/3/2020,0,0
4/4/2020,0,0
4/5/2020,0,0
4/6/2020,0,0
4/7/2020,0,0
4/8/2020,0,0
4/9/2020,34.6,34.6
4/10/2020,0,0
4/11/2020,0,0
4/12/2020,23.3,23.3
4/13/2020,1.2,1.2
4/14/2020,0,0
4/15/2020,0,0
4/16/2020,0,0
4/17/2020,0,0
4/18/2020,0,0
4/19/2020,0,0
4/20/2020,0,0
4/21/2020,0,0
4/22/2020,0,0
4/23/2020,11.4,11.4
4/24/2020,0,0
4/25/2020,1.6,1.6
4/26/2020,0,0
4/27/2020,0,0
4/28/2020,0,0
4/29/2020,0,0
4/30/2020,0,0
5/1/2020,0,0
5/2/2020,0,0
5/3/2020,0,0
5/4/2020,4,4
5/5/2020,0,0
5/6/2020,0,0
5/7/2020,0,0
5/8/2020,0,0
5/9/2020,0,0
5/10/2020,0,0
5/11/2020,25.1,25.1
5/12/2020,0,0
5/13/2020,0,0
5/14/2020,0,0
5/15/2020,0,0
5/16/2020,0,0
5/17/2020,1,1
5/18/2020,1.1,1.1
5/19/2020,0,0
5/20/2020,14.8,14.8
5/21/2020,0,0
5/22/2020,0,0
5/23/2020,0,0
5/24/2020,29.4,29.4
5/25/2020,0,0
5/26/2020,12.9,12.9
5/27/2020,0.5,0.5
5/28/2020,0,0
5/29/2020,0,0
5/30/2020,3.4,3.4
5/31/2020,0,0
6/1/2020,0,0
6/2/2020,4.2,4.2
6/3/2020,9.1,9.1
6/4/2020,0,0
6/5/2020,0,0
6/6/2020,4.2,4.2
6/7/2020,0,0
6/8/2020,0,0
6/9/2020,0,0
6/10/2020,0,0
6/11/2020,0,0
6/12/2020,0,0
6/13/2020,2.7,2.7
6/14/2020,89.9,89.9
6/15/2020,0,0
6/16/2020,15.6,15.6
6/17/2020,12,12
6/18/2020,17.3,17.3
6/19/2020,0.6,0.6
6/20/2020,0,0
6/21/2020,33.8,33.8
6/22/2020,0,0
6/23/2020,0,0
6/24/2020,5.9,5.9
6/25/2020,0,0
6/26/2020,0,0
6/27/2020,0,0
6/28/2020,0,0
6/29/2020,0,0
6/30/2020,0,0
7/1/2020,37.8,37.8
7/2/2020,121.2,121.2
7/3/2020,0,0
7/4/2020,20,20
7/5/2020,0,0
7/6/2020,0,0
7/7/2020,1,1
7/8/2020,0,0
7/9/2020,0,0
7/10/2020,0,0
7/11/2020,0,0
7/12/2020,1.4,1.4
7/13/2020,0,0
7/14/2020,0,0
7/15/2020,10.5,10.5
7/16/2020,6.2,6.2
7/17/2020,7.5,7.5
7/18/2020,0,0
7/19/2020,17.2,17.2
7/20/2020,0,0
7/21/2020,8.2,8.2
7/22/2020,0,0
7/23/2020,0,0
7/24/2020,0,0
7/25/2020,0,0
7/26/2020,0,0
7/27/2020,0,0
7/28/2020,4.9,4.9
7/29/2020,32.9,32.9
7/30/2020,6,6
7/31/2020,5.5,5.5
8/1/2020,9.1,9.1
8/2/2020,75.1,75.1
8/3/2020,3.1,3.1
8/4/2020,26,26
8/5/2020,0,0
8/6/2020,0,0
8/7/2020,0,0
8/8/2020,0.5,0.5
8/9/2020,18.5,18.5
8/10/2020,2.3,2.3
8/11/2020,0,0
8/12/2020,0,0
8/13/2020,35.9,35.9
8/14/2020,40.8,40.8
8/15/2020,0.6,0.6
8/16/2020,0,0
8/17/2020,5.3,5.3
8/18/2020,38.9,38.9
8/19/2020,2.1,2.1
8/20/2020,1.5,1.5
8/21/2020,1,1
8/22/2020,28.4,28.4
8/23/2020,30.5,30.5
8/24/2020,0,0
8/25/2020,0,0
8/26/2020,0,0
8/27/2020,8.7,8.7
8/28/2020,16.5,16.5
8/29/2020,0,0
8/30/2020,0,0
8/31/2020,0,0
9/1/2020,0.5,0.5
9/2/2020,0,0
9/3/2020,0.8,0.8
9/4/2020,2.2,2.2
9/5/2020,2.3,2.3
9/6/2020,0,0
9/7/2020,0,0
9/8/2020,0,0
9/9/2020,0,0
9/10/2020,0.5,0.5
9/11/2020,0,0
9/12/2020,5.2,5.2
9/13/2020,2.5,2.5
9/14/2020,15.5,15.5
9/15/2020,11.9,11.9
9/16/2020,0,0
9/17/2020,0,0
9/18/2020,43,43
9/19/2020,175.9,175.9
9/20/2020,24.4,24.4
9/21/2020,1,1
9/22/2020,0,0
9/23/2020,6.9,6.9
9/24/2020,2.1,2.1
9/25/2020,0,0
9/26/2020,0,0
9/27/2020,0,0
9/28/2020,3.5,3.5
9/29/2020,0,0
9/30/2020,2,2
10/1/2020,7.4,7.4
10/2/2020,0,0
10/3/2020,1,1
10/4/2020,0,0
10/5/2020,0.9,0.9
10/6/2020,4.5,4.5
10/7/2020,2.5,2.5
10/8/2020,7.9,7.9
10/9/2020,6.8,6.8
10/10/2020,1,1
10/11/2020,1,1
10/12/2020,32.4,32.4
10/13/2020,29.3,29.3
10/14/2020,1,1
10/15/2020,0,0
10/16/2020,4.3,4.3
10/17/2020,0,0
10/18/2020,14.7,14.7
10/19/2020,51,51
10/20/2020,53.2,53.2
10/21/2020,0,0
10/22/2020,0,0
10/23/2020,0,0
10/24/2020,0,0
10/25/2020,0,0
10/26/2020,0.5,0.5
10/27/2020,0,0
10/28/2020,0,0
10/29/2020,61.3,61.3
10/30/2020,3,3
10/31/2020,1.5,1.5
11/1/2020,30,30
11/2/2020,0,0
11/3/2020,0,0
11/4/2020,0,0
11/5/2020,0,0
11/6/2020,0,0
11/7/2020,1.6,1.6
11/8/2020,0,0
11/9/2020,0,0
11/10/2020,0,0
11/11/2020,1.1,1.1
11/12/2020,0,0
11/13/2020,0,0
11/14/2020,0,0
11/15/2020,0,0
11/16/2020,0,0
11/17/2020,0,0
11/18/2020,0,0
11/19/2020,0,0
11/20/2020,0,0
11/21/2020,0,0
11/22/2020,2.9,2.9
11/23/2020,0,0
11/24/2020,0,0
11/25/2020,0,0
11/26/2020,0,0
11/27/2020,0,0
11/28/2020,0,0
11/29/2020,0,0
11/30/2020,0,0
12/1/2020,0,0
12/2/2020,0,0
12/3/2020,0,0
12/4/2020,0,0
12/5/2020,0,0
12/6/2020,0,0
12/7/2020,0,0
12/8/2020,0,0
12/9/2020,0,0
12/10/2020,0,0
12/11/2020,0,0
12/12/2020,0,0
12/13/2020,0,0
12/14/2020,0,0
12/15/2020,0,0
12/16/2020,0,0
12/17/2020,0,0
12/18/2020,0,0
12/19/2020,0,0
12/20/2020,0,0
12/21/2020,0,0
12/22/2020,0,0
12/23/2020,0,0
12/24/2020,0,0
12/25/2020,0,0
12/26/2020,0,0
12/27/2020,0,0
12/28/2020,0,0
12/29/2020,0,0
12/30/2020,0,0
12/31/2020,0,0
1/1/2021,0,0
1/2/2021,0,0
1/3/2021,0,0
1/4/2021,0,0
1/5/2021,0,0
1/6/2021,0,0
1/7/2021,0,0
1/8/2021,0,0
1/9/2021,0,0
1/10/2021,0,0
1/11/2021,0,0
1/12/2021,0,0
1/13/2021,0,0
1/14/2021,0,0
1/15/2021,0,0
1/16/2021,0,0
1/17/2021,0,0
1/18/2021,0,0
1/19/2021,0,0
1/20/2021,0,0
1/21/2021,0,0
1/22/2021,0,0
1/23/2021,0,0
1/24/2021,0,0
1/25/2021,0,0
1/26/2021,0,0
1/27/2021,0,0
1/28/2021,0,0
1/29/2021,0,0
1/30/2021,0,0
1/31/2021,0,0
2/1/2021,0,0
2/2/2021,0,0
2/3/2021,0,0
2/4/2021,0,0
2/5/2021,0,0
2/6/2021,0,0
2/7/2021,0,0
2/8/2021,0,0
2/9/2021,17.4,17.4
2/10/2021,8.1,8.1
2/11/2021,0,0
2/12/2021,0,0
2/13/2021,0,0
2/14/2021,0,0
2/15/2021,0,0
2/16/2021,0,0
2/17/2021,0,0
2/18/2021,0,0
2/19/2021,0,0
2/20/2021,0,0
2/21/2021,0,0
2/22/2021,0,0
2/23/2021,0,0
2/24/2021,0,0
2/25/2021,0,0
2/26/2021,0,0
2/27/2021,0,0
2/28/2021,0,0
3/1/2021,0,0
3/2/2021,0,0
3/3/2021,0,0
3/4/2021,0,0
3/5/2021,0,0
3/6/2021,15.8,15.8
3/7/2021,0,0
3/8/2021,5.2,5.2
3/9/2021,0,0
3/10/2021,0,0
3/11/2021,0,0
3/12/2021,0,0
3/13/2021,0,0
3/14/2021,0,0
3/15/2021,0,0
3/16/2021,0,0
3/17/2021,0,0
3/18/2021,0,0
3/19/2021,0,0
3/20/2021,0,0
3/21/2021,0,0
3/22/2021,2.5,2.5
3/23/2021,0,0
3/24/2021,0,0
3/25/2021,0,0
3/26/2021,0,0
3/27/2021,0,0
3/28/2021,0,0
3/29/2021,0,0
3/30/2021,0,0
3/31/2021,0,0
4/1/2021,0,0
4/2/2021,0,0
4/3/2021,0,0
4/4/2021,0,0
4/5/2021,0,0
4/6/2021,0,0
4/7/2021,0,0
4/8/2021,0,0
4/9/2021,0,0
4/10/2021,0,0
4/11/2021,0,0
4/12/2021,0,0
4/13/2021,0,0
4/14/2021,0,0
4/15/2021,0,0
4/16/2021,0,0
4/17/2021,0,0
4/18/2021,0,0
4/19/2021,0,0
4/20/2021,0,0
4/21/2021,0,0
4/22/2021,0,0
4/23/2021,0,0
4/24/2021,0,0
4/25/2021,0,0
4/26/2021,0,0
4/27/2021,0,0
4/28/2021,0,0
4/29/2021,0,0
4/30/2021,0,0
5/1/2021,0,0
5/2/2021,0,0
5/3/2021,0,0
5/4/2021,0,0
5/5/2021,0,0
5/6/2021,0,0
5/7/2021,0,0
5/8/2021,0,0
5/9/2021,0,0
5/10/2021,0,0
